-- Merging decision tree log ---
manifest
ADDED from /home/appideas-user8/Music/Projects/EducationPortal_mainAmit 2/EducationPortal_mainAmit/android/app/src/main/AndroidManifest.xml:1:1-38:12
INJECTED from /home/appideas-user8/Music/Projects/EducationPortal_mainAmit 2/EducationPortal_mainAmit/android/app/src/main/AndroidManifest.xml:1:1-38:12
INJECTED from /home/appideas-user8/Music/Projects/EducationPortal_mainAmit 2/EducationPortal_mainAmit/android/app/src/main/AndroidManifest.xml:1:1-38:12
INJECTED from /home/appideas-user8/Music/Projects/EducationPortal_mainAmit 2/EducationPortal_mainAmit/android/app/src/main/AndroidManifest.xml:1:1-38:12
MERGED from [:react-native-document-picker] /home/appideas-user8/Music/Projects/EducationPortal_mainAmit 2/EducationPortal_mainAmit/node_modules/react-native-document-picker/android/build/intermediates/merged_manifests/debug/processDebugManifest/merged/AndroidManifest.xml:2:1-11:12
MERGED from [:react-native-push-notification] /home/appideas-user8/Music/Projects/EducationPortal_mainAmit 2/EducationPortal_mainAmit/node_modules/react-native-push-notification/android/build/intermediates/merged_manifests/debug/processDebugManifest/merged/AndroidManifest.xml:2:1-11:12
MERGED from [:react-native-html-to-pdf] /home/appideas-user8/Music/Projects/EducationPortal_mainAmit 2/EducationPortal_mainAmit/node_modules/react-native-html-to-pdf/android/build/intermediates/merged_manifests/debug/processDebugManifest/merged/AndroidManifest.xml:2:1-11:12
MERGED from [:rn-fetch-blob] /home/appideas-user8/Music/Projects/EducationPortal_mainAmit 2/EducationPortal_mainAmit/node_modules/rn-fetch-blob/android/build/intermediates/merged_manifests/debug/processDebugManifest/merged/AndroidManifest.xml:2:1-47:12
MERGED from [:react-native-youtube] /home/appideas-user8/Music/Projects/EducationPortal_mainAmit 2/EducationPortal_mainAmit/node_modules/react-native-youtube/android/build/intermediates/merged_manifests/debug/processDebugManifest/merged/AndroidManifest.xml:2:1-11:12
MERGED from [:react-native-video] /home/appideas-user8/Music/Projects/EducationPortal_mainAmit 2/EducationPortal_mainAmit/node_modules/react-native-video/android-exoplayer/build/intermediates/merged_manifests/debug/processDebugManifest/merged/AndroidManifest.xml:2:1-11:12
MERGED from [:react-native-vector-icons] /home/appideas-user8/Music/Projects/EducationPortal_mainAmit 2/EducationPortal_mainAmit/node_modules/react-native-vector-icons/android/build/intermediates/merged_manifests/debug/processDebugManifest/merged/AndroidManifest.xml:2:1-11:12
MERGED from [:react-native-pdf] /home/appideas-user8/Music/Projects/EducationPortal_mainAmit 2/EducationPortal_mainAmit/node_modules/react-native-pdf/android/build/intermediates/merged_manifests/debug/processDebugManifest/merged/AndroidManifest.xml:2:1-9:12
MERGED from [:react-native-image-picker] /home/appideas-user8/Music/Projects/EducationPortal_mainAmit 2/EducationPortal_mainAmit/node_modules/react-native-image-picker/android/build/intermediates/merged_manifests/debug/processDebugManifest/merged/AndroidManifest.xml:2:1-23:12
MERGED from [:react-native-svg] /home/appideas-user8/Music/Projects/EducationPortal_mainAmit 2/EducationPortal_mainAmit/node_modules/react-native-svg/android/build/intermediates/merged_manifests/debug/processDebugManifest/merged/AndroidManifest.xml:2:1-11:12
MERGED from [com.facebook.react:react-native:0.57.1] /home/appideas-user8/.gradle/caches/transforms-1/files-1.1/react-native-0.57.1.aar/e57aacb671f060af218955a5b76105c7/AndroidManifest.xml:2:1-15:12
MERGED from [com.android.support:appcompat-v7:28.0.0] /home/appideas-user8/.gradle/caches/transforms-1/files-1.1/appcompat-v7-28.0.0.aar/1aee82dc05eac0034c9654bc60a6d5a1/AndroidManifest.xml:17:1-22:12
MERGED from [com.google.android.gms:play-services-gcm:16.0.0] /home/appideas-user8/.gradle/caches/transforms-1/files-1.1/play-services-gcm-16.0.0.aar/0d67e260b03059d87dc70e7593dcfce7/AndroidManifest.xml:17:1-28:12
MERGED from [me.leolin:ShortcutBadger:1.1.8] /home/appideas-user8/.gradle/caches/transforms-1/files-1.1/ShortcutBadger-1.1.8.aar/d2918dcb14f1625628a324cdee1bca8c/AndroidManifest.xml:2:1-41:12
MERGED from [com.google.firebase:firebase-messaging:17.3.4] /home/appideas-user8/.gradle/caches/transforms-1/files-1.1/firebase-messaging-17.3.4.aar/f796a0cc563a1f86db1c1f8fe84d4c82/AndroidManifest.xml:17:1-37:12
MERGED from [com.google.android.exoplayer:exoplayer:2.7.3] /home/appideas-user8/.gradle/caches/transforms-1/files-1.1/exoplayer-2.7.3.aar/86ef4b11eb6827ca9690a6dbdfc0b724/AndroidManifest.xml:17:1-24:12
MERGED from [com.google.android.exoplayer:extension-okhttp:2.7.3] /home/appideas-user8/.gradle/caches/transforms-1/files-1.1/extension-okhttp-2.7.3.aar/9431df03d76afc01adcf040cee8982df/AndroidManifest.xml:17:1-24:12
MERGED from [com.facebook.fresco:imagepipeline-okhttp3:1.10.0] /home/appideas-user8/.gradle/caches/transforms-1/files-1.1/imagepipeline-okhttp3-1.10.0.aar/4739725be1dda469361274b40014eba1/AndroidManifest.xml:2:1-9:12
MERGED from [com.github.barteksc:android-pdf-viewer:3.1.0-beta.1] /home/appideas-user8/.gradle/caches/transforms-1/files-1.1/android-pdf-viewer-3.1.0-beta.1.aar/bdf5f31f4fcf7cefba1105cb73e7fee1/AndroidManifest.xml:2:1-11:12
MERGED from [com.google.android.exoplayer:exoplayer-dash:2.7.3] /home/appideas-user8/.gradle/caches/transforms-1/files-1.1/exoplayer-dash-2.7.3.aar/bdc3d60b0e33a0342c10fa49f01f5d6d/AndroidManifest.xml:17:1-24:12
MERGED from [com.google.android.exoplayer:exoplayer-hls:2.7.3] /home/appideas-user8/.gradle/caches/transforms-1/files-1.1/exoplayer-hls-2.7.3.aar/63845d653cecfcc835344c94a216f77e/AndroidManifest.xml:17:1-24:12
MERGED from [com.google.android.exoplayer:exoplayer-smoothstreaming:2.7.3] /home/appideas-user8/.gradle/caches/transforms-1/files-1.1/exoplayer-smoothstreaming-2.7.3.aar/5a63817ec00f886c82a0303583f5e505/AndroidManifest.xml:17:1-24:12
MERGED from [com.google.android.exoplayer:exoplayer-ui:2.7.3] /home/appideas-user8/.gradle/caches/transforms-1/files-1.1/exoplayer-ui-2.7.3.aar/cef2886f5e3d325ae921883306947e6b/AndroidManifest.xml:17:1-24:12
MERGED from [com.google.android.exoplayer:exoplayer-core:2.7.3] /home/appideas-user8/.gradle/caches/transforms-1/files-1.1/exoplayer-core-2.7.3.aar/bad8c76b2fb1c19abcd11ecfd4210961/AndroidManifest.xml:17:1-24:12
MERGED from [com.google.android.gms:play-services-iid:16.0.0] /home/appideas-user8/.gradle/caches/transforms-1/files-1.1/play-services-iid-16.0.0.aar/62572cad019c0d3f4f6fa1908f0e0f0f/AndroidManifest.xml:17:1-28:12
MERGED from [com.google.firebase:firebase-iid:17.0.4] /home/appideas-user8/.gradle/caches/transforms-1/files-1.1/firebase-iid-17.0.4.aar/df2cf79cf6bd7080f24b1f7eb3e0d659/AndroidManifest.xml:17:1-59:12
MERGED from [com.google.firebase:firebase-iid-interop:16.0.1] /home/appideas-user8/.gradle/caches/transforms-1/files-1.1/firebase-iid-interop-16.0.1.aar/f6c851ef467da755a63d4e597e0f485d/AndroidManifest.xml:2:1-10:12
MERGED from [com.google.android.gms:play-services-base:16.0.1] /home/appideas-user8/.gradle/caches/transforms-1/files-1.1/play-services-base-16.0.1.aar/b7877f986c99fa8c4ecdb6981101cc60/AndroidManifest.xml:17:1-29:12
MERGED from [com.google.android.gms:play-services-stats:16.0.1] /home/appideas-user8/.gradle/caches/transforms-1/files-1.1/play-services-stats-16.0.1.aar/941d827e58ebef93c0d8ff6ba1cddcaf/AndroidManifest.xml:2:1-9:12
MERGED from [com.google.firebase:firebase-common:16.0.3] /home/appideas-user8/.gradle/caches/transforms-1/files-1.1/firebase-common-16.0.3.aar/90be46065eb4617a2794c29fbc97482c/AndroidManifest.xml:2:1-17:12
MERGED from [com.google.android.gms:play-services-tasks:16.0.1] /home/appideas-user8/.gradle/caches/transforms-1/files-1.1/play-services-tasks-16.0.1.aar/5854b513d319affcdd49a60cc87e09e3/AndroidManifest.xml:2:1-9:12
MERGED from [com.google.firebase:firebase-measurement-connector:17.0.1] /home/appideas-user8/.gradle/caches/transforms-1/files-1.1/firebase-measurement-connector-17.0.1.aar/6949b285383a826afcb1c467813c5240/AndroidManifest.xml:17:1-25:12
MERGED from [com.google.android.gms:play-services-basement:16.0.1] /home/appideas-user8/.gradle/caches/transforms-1/files-1.1/play-services-basement-16.0.1.aar/4e909e27b315928f32eaa8c5e35b2bde/AndroidManifest.xml:17:1-28:12
MERGED from [com.github.barteksc:pdfium-android:1.9.0] /home/appideas-user8/.gradle/caches/transforms-1/files-1.1/pdfium-android-1.9.0.aar/089a29c90e79b6b60a334984f450bbca/AndroidManifest.xml:2:1-11:12
MERGED from [com.android.support:support-v4:26.1.0] /home/appideas-user8/.gradle/caches/transforms-1/files-1.1/support-v4-26.1.0.aar/57521508716e1dafb60accfd6f1c79e7/AndroidManifest.xml:17:1-31:12
MERGED from [com.android.support:support-media-compat:26.1.0] /home/appideas-user8/.gradle/caches/transforms-1/files-1.1/support-media-compat-26.1.0.aar/a95b062805b97cd1d3afedcaa941566a/AndroidManifest.xml:17:1-31:12
MERGED from [com.android.support:animated-vector-drawable:28.0.0] /home/appideas-user8/.gradle/caches/transforms-1/files-1.1/animated-vector-drawable-28.0.0.aar/0a3deb00dc053e546f454418fc51e4a3/AndroidManifest.xml:17:1-22:12
MERGED from [com.android.support:support-vector-drawable:28.0.0] /home/appideas-user8/.gradle/caches/transforms-1/files-1.1/support-vector-drawable-28.0.0.aar/6015192b30b6cbff8c29f192ae86170d/AndroidManifest.xml:17:1-22:12
MERGED from [com.android.support:support-fragment:28.0.0] /home/appideas-user8/.gradle/caches/transforms-1/files-1.1/support-fragment-28.0.0.aar/ddda42a3add3207fe15399579d571a3f/AndroidManifest.xml:17:1-22:12
MERGED from [com.android.support:support-core-ui:28.0.0] /home/appideas-user8/.gradle/caches/transforms-1/files-1.1/support-core-ui-28.0.0.aar/322a589c4c4ade092a58d71d53867e05/AndroidManifest.xml:17:1-22:12
MERGED from [com.android.support:support-core-utils:28.0.0] /home/appideas-user8/.gradle/caches/transforms-1/files-1.1/support-core-utils-28.0.0.aar/21a602f528abdae42333b91e41759021/AndroidManifest.xml:17:1-22:12
MERGED from [com.android.support:loader:28.0.0] /home/appideas-user8/.gradle/caches/transforms-1/files-1.1/loader-28.0.0.aar/b32f1b99a131abb2eb01dd7c11d98a6e/AndroidManifest.xml:17:1-22:12
MERGED from [com.android.support:viewpager:28.0.0] /home/appideas-user8/.gradle/caches/transforms-1/files-1.1/viewpager-28.0.0.aar/7a5b41b5112cc371e090f53ac3b9a465/AndroidManifest.xml:17:1-22:12
MERGED from [com.android.support:coordinatorlayout:28.0.0] /home/appideas-user8/.gradle/caches/transforms-1/files-1.1/coordinatorlayout-28.0.0.aar/2f06f187758181d881538a7c9204793e/AndroidManifest.xml:17:1-22:12
MERGED from [com.android.support:drawerlayout:28.0.0] /home/appideas-user8/.gradle/caches/transforms-1/files-1.1/drawerlayout-28.0.0.aar/113f7fd541fd84ec61a89be9c634e731/AndroidManifest.xml:17:1-22:12
MERGED from [com.android.support:slidingpanelayout:28.0.0] /home/appideas-user8/.gradle/caches/transforms-1/files-1.1/slidingpanelayout-28.0.0.aar/e274fc339b84b5ccb165520bf9d2fa20/AndroidManifest.xml:17:1-22:12
MERGED from [com.android.support:customview:28.0.0] /home/appideas-user8/.gradle/caches/transforms-1/files-1.1/customview-28.0.0.aar/b4d8dc2ec3ffa85b45ab7017994e829d/AndroidManifest.xml:17:1-22:12
MERGED from [com.android.support:swiperefreshlayout:28.0.0] /home/appideas-user8/.gradle/caches/transforms-1/files-1.1/swiperefreshlayout-28.0.0.aar/48bfe4b55cffe57505cae9c2544b5d08/AndroidManifest.xml:17:1-22:12
MERGED from [com.android.support:asynclayoutinflater:28.0.0] /home/appideas-user8/.gradle/caches/transforms-1/files-1.1/asynclayoutinflater-28.0.0.aar/652c097bb5dd760205ed3825dfa13d40/AndroidManifest.xml:17:1-22:12
MERGED from [com.android.support:support-compat:28.0.0] /home/appideas-user8/.gradle/caches/transforms-1/files-1.1/support-compat-28.0.0.aar/2c372e0c15d8afb4ca9fd36d4bf6b573/AndroidManifest.xml:17:1-24:12
MERGED from [com.android.support:versionedparcelable:28.0.0] /home/appideas-user8/.gradle/caches/transforms-1/files-1.1/versionedparcelable-28.0.0.aar/f5b1a1ce0ecc22e5ecaaf49ceb87237b/AndroidManifest.xml:17:1-25:12
MERGED from [com.android.support:cursoradapter:28.0.0] /home/appideas-user8/.gradle/caches/transforms-1/files-1.1/cursoradapter-28.0.0.aar/b7a675fc8fbcd4e0e5410b65fda8967c/AndroidManifest.xml:17:1-22:12
MERGED from [android.arch.lifecycle:runtime:1.1.1] /home/appideas-user8/.gradle/caches/transforms-1/files-1.1/runtime-1.1.1.aar/3f5fedabede0bd658105d65439130e94/AndroidManifest.xml:17:1-22:12
MERGED from [android.arch.lifecycle:livedata:1.1.1] /home/appideas-user8/.gradle/caches/transforms-1/files-1.1/livedata-1.1.1.aar/7ac998d507536d72a29c0de16219a540/AndroidManifest.xml:17:1-22:12
MERGED from [android.arch.lifecycle:livedata-core:1.1.1] /home/appideas-user8/.gradle/caches/transforms-1/files-1.1/livedata-core-1.1.1.aar/6efff4ecbf422494bfe5fc87555c23a0/AndroidManifest.xml:17:1-22:12
MERGED from [android.arch.core:runtime:1.1.1] /home/appideas-user8/.gradle/caches/transforms-1/files-1.1/runtime-1.1.1.aar/9ecc8aaec53daef1ff0501cc0048a450/AndroidManifest.xml:17:1-22:12
MERGED from [com.android.support:documentfile:28.0.0] /home/appideas-user8/.gradle/caches/transforms-1/files-1.1/documentfile-28.0.0.aar/fc951d1c85546f7c3c99adbd472f629c/AndroidManifest.xml:17:1-22:12
MERGED from [com.android.support:localbroadcastmanager:28.0.0] /home/appideas-user8/.gradle/caches/transforms-1/files-1.1/localbroadcastmanager-28.0.0.aar/77c2eb54574fc2c4aa88d7dba7a3da6e/AndroidManifest.xml:17:1-22:12
MERGED from [com.android.support:print:28.0.0] /home/appideas-user8/.gradle/caches/transforms-1/files-1.1/print-28.0.0.aar/85e616c39ba70542ac56e3e435388820/AndroidManifest.xml:17:1-22:12
MERGED from [android.arch.lifecycle:viewmodel:1.1.1] /home/appideas-user8/.gradle/caches/transforms-1/files-1.1/viewmodel-1.1.1.aar/47ff71c26de95653a2718ba781974f34/AndroidManifest.xml:17:1-22:12
MERGED from [com.android.support:interpolator:28.0.0] /home/appideas-user8/.gradle/caches/transforms-1/files-1.1/interpolator-28.0.0.aar/558d72d11e4fe8a65fec143567331d00/AndroidManifest.xml:17:1-22:12
MERGED from [com.facebook.fresco:fresco:1.10.0] /home/appideas-user8/.gradle/caches/transforms-1/files-1.1/fresco-1.10.0.aar/bf0b0a2d8b9c6081926b514297ecfdd5/AndroidManifest.xml:2:1-9:12
MERGED from [com.facebook.fresco:drawee:1.10.0] /home/appideas-user8/.gradle/caches/transforms-1/files-1.1/drawee-1.10.0.aar/5286666ae213ef715f94c799ae78a314/AndroidManifest.xml:2:1-9:12
MERGED from [com.facebook.fresco:imagepipeline:1.10.0] /home/appideas-user8/.gradle/caches/transforms-1/files-1.1/imagepipeline-1.10.0.aar/28a8fdc6eff156065edb0bdab41ca3e0/AndroidManifest.xml:2:1-9:12
MERGED from [com.facebook.fresco:imagepipeline-base:1.10.0] /home/appideas-user8/.gradle/caches/transforms-1/files-1.1/imagepipeline-base-1.10.0.aar/7cf66174560413281590d1d096858a7a/AndroidManifest.xml:2:1-9:12
MERGED from [com.facebook.soloader:soloader:0.5.1] /home/appideas-user8/.gradle/caches/transforms-1/files-1.1/soloader-0.5.1.aar/ba383a28ca2642985bda6a312e99d355/AndroidManifest.xml:2:1-13:12
MERGED from [org.webkit:android-jsc:r174650] /home/appideas-user8/.gradle/caches/transforms-1/files-1.1/android-jsc-r174650.aar/851de7a26f243d76e0eec46063fa37f8/AndroidManifest.xml:1:1-3:12
MERGED from [com.facebook.fresco:fbcore:1.10.0] /home/appideas-user8/.gradle/caches/transforms-1/files-1.1/fbcore-1.10.0.aar/02e129945cc100685a9fc2a795f0e372/AndroidManifest.xml:2:1-9:12
INJECTED from /home/appideas-user8/Music/Projects/EducationPortal_mainAmit 2/EducationPortal_mainAmit/android/app/src/main/AndroidManifest.xml:1:1-38:12
INJECTED from /home/appideas-user8/Music/Projects/EducationPortal_mainAmit 2/EducationPortal_mainAmit/android/app/src/main/AndroidManifest.xml:1:1-38:12
INJECTED from /home/appideas-user8/Music/Projects/EducationPortal_mainAmit 2/EducationPortal_mainAmit/android/app/src/main/AndroidManifest.xml:1:1-38:12
	package
		ADDED from /home/appideas-user8/Music/Projects/EducationPortal_mainAmit 2/EducationPortal_mainAmit/android/app/src/main/AndroidManifest.xml:2:5-28
		INJECTED from /home/appideas-user8/Music/Projects/EducationPortal_mainAmit 2/EducationPortal_mainAmit/android/app/src/main/AndroidManifest.xml
		INJECTED from /home/appideas-user8/Music/Projects/EducationPortal_mainAmit 2/EducationPortal_mainAmit/android/app/src/main/AndroidManifest.xml
	android:versionName
		INJECTED from /home/appideas-user8/Music/Projects/EducationPortal_mainAmit 2/EducationPortal_mainAmit/android/app/src/main/AndroidManifest.xml
		ADDED from /home/appideas-user8/Music/Projects/EducationPortal_mainAmit 2/EducationPortal_mainAmit/android/app/src/main/AndroidManifest.xml:1:1-38:12
		INJECTED from /home/appideas-user8/Music/Projects/EducationPortal_mainAmit 2/EducationPortal_mainAmit/android/app/src/main/AndroidManifest.xml
	android:versionCode
		INJECTED from /home/appideas-user8/Music/Projects/EducationPortal_mainAmit 2/EducationPortal_mainAmit/android/app/src/main/AndroidManifest.xml
		ADDED from /home/appideas-user8/Music/Projects/EducationPortal_mainAmit 2/EducationPortal_mainAmit/android/app/src/main/AndroidManifest.xml:1:1-38:12
		INJECTED from /home/appideas-user8/Music/Projects/EducationPortal_mainAmit 2/EducationPortal_mainAmit/android/app/src/main/AndroidManifest.xml
	xmlns:android
		ADDED from /home/appideas-user8/Music/Projects/EducationPortal_mainAmit 2/EducationPortal_mainAmit/android/app/src/main/AndroidManifest.xml:1:11-69
uses-permission#android.permission.INTERNET
ADDED from /home/appideas-user8/Music/Projects/EducationPortal_mainAmit 2/EducationPortal_mainAmit/android/app/src/main/AndroidManifest.xml:4:5-67
MERGED from [:rn-fetch-blob] /home/appideas-user8/Music/Projects/EducationPortal_mainAmit 2/EducationPortal_mainAmit/node_modules/rn-fetch-blob/android/build/intermediates/merged_manifests/debug/processDebugManifest/merged/AndroidManifest.xml:15:5-67
MERGED from [:rn-fetch-blob] /home/appideas-user8/Music/Projects/EducationPortal_mainAmit 2/EducationPortal_mainAmit/node_modules/rn-fetch-blob/android/build/intermediates/merged_manifests/debug/processDebugManifest/merged/AndroidManifest.xml:15:5-67
MERGED from [com.google.android.gms:play-services-gcm:16.0.0] /home/appideas-user8/.gradle/caches/transforms-1/files-1.1/play-services-gcm-16.0.0.aar/0d67e260b03059d87dc70e7593dcfce7/AndroidManifest.xml:24:5-67
MERGED from [com.google.android.gms:play-services-gcm:16.0.0] /home/appideas-user8/.gradle/caches/transforms-1/files-1.1/play-services-gcm-16.0.0.aar/0d67e260b03059d87dc70e7593dcfce7/AndroidManifest.xml:24:5-67
MERGED from [com.google.android.gms:play-services-iid:16.0.0] /home/appideas-user8/.gradle/caches/transforms-1/files-1.1/play-services-iid-16.0.0.aar/62572cad019c0d3f4f6fa1908f0e0f0f/AndroidManifest.xml:24:5-67
MERGED from [com.google.android.gms:play-services-iid:16.0.0] /home/appideas-user8/.gradle/caches/transforms-1/files-1.1/play-services-iid-16.0.0.aar/62572cad019c0d3f4f6fa1908f0e0f0f/AndroidManifest.xml:24:5-67
MERGED from [com.google.firebase:firebase-iid:17.0.4] /home/appideas-user8/.gradle/caches/transforms-1/files-1.1/firebase-iid-17.0.4.aar/df2cf79cf6bd7080f24b1f7eb3e0d659/AndroidManifest.xml:23:5-67
MERGED from [com.google.firebase:firebase-iid:17.0.4] /home/appideas-user8/.gradle/caches/transforms-1/files-1.1/firebase-iid-17.0.4.aar/df2cf79cf6bd7080f24b1f7eb3e0d659/AndroidManifest.xml:23:5-67
	android:name
		ADDED from /home/appideas-user8/Music/Projects/EducationPortal_mainAmit 2/EducationPortal_mainAmit/android/app/src/main/AndroidManifest.xml:4:22-64
uses-permission#android.permission.WRITE_EXTERNAL_STORAGE
ADDED from /home/appideas-user8/Music/Projects/EducationPortal_mainAmit 2/EducationPortal_mainAmit/android/app/src/main/AndroidManifest.xml:5:5-81
MERGED from [:rn-fetch-blob] /home/appideas-user8/Music/Projects/EducationPortal_mainAmit 2/EducationPortal_mainAmit/node_modules/rn-fetch-blob/android/build/intermediates/merged_manifests/debug/processDebugManifest/merged/AndroidManifest.xml:33:5-81
MERGED from [:rn-fetch-blob] /home/appideas-user8/Music/Projects/EducationPortal_mainAmit 2/EducationPortal_mainAmit/node_modules/rn-fetch-blob/android/build/intermediates/merged_manifests/debug/processDebugManifest/merged/AndroidManifest.xml:33:5-81
	android:name
		ADDED from /home/appideas-user8/Music/Projects/EducationPortal_mainAmit 2/EducationPortal_mainAmit/android/app/src/main/AndroidManifest.xml:5:22-78
uses-permission#android.permission.READ_EXTERNAL_STORAGE
ADDED from /home/appideas-user8/Music/Projects/EducationPortal_mainAmit 2/EducationPortal_mainAmit/android/app/src/main/AndroidManifest.xml:6:5-80
	android:name
		ADDED from /home/appideas-user8/Music/Projects/EducationPortal_mainAmit 2/EducationPortal_mainAmit/android/app/src/main/AndroidManifest.xml:6:22-77
uses-permission#android.permission.SYSTEM_ALERT_WINDOW
ADDED from /home/appideas-user8/Music/Projects/EducationPortal_mainAmit 2/EducationPortal_mainAmit/android/app/src/main/AndroidManifest.xml:7:5-77
MERGED from [com.facebook.react:react-native:0.57.1] /home/appideas-user8/.gradle/caches/transforms-1/files-1.1/react-native-0.57.1.aar/e57aacb671f060af218955a5b76105c7/AndroidManifest.xml:11:5-78
MERGED from [com.facebook.react:react-native:0.57.1] /home/appideas-user8/.gradle/caches/transforms-1/files-1.1/react-native-0.57.1.aar/e57aacb671f060af218955a5b76105c7/AndroidManifest.xml:11:5-78
	android:name
		ADDED from /home/appideas-user8/Music/Projects/EducationPortal_mainAmit 2/EducationPortal_mainAmit/android/app/src/main/AndroidManifest.xml:7:22-75
uses-permission#android.permission.CAMERA
ADDED from /home/appideas-user8/Music/Projects/EducationPortal_mainAmit 2/EducationPortal_mainAmit/android/app/src/main/AndroidManifest.xml:8:5-65
	android:name
		ADDED from /home/appideas-user8/Music/Projects/EducationPortal_mainAmit 2/EducationPortal_mainAmit/android/app/src/main/AndroidManifest.xml:8:22-62
application
ADDED from /home/appideas-user8/Music/Projects/EducationPortal_mainAmit 2/EducationPortal_mainAmit/android/app/src/main/AndroidManifest.xml:10:5-36:19
MERGED from [:rn-fetch-blob] /home/appideas-user8/Music/Projects/EducationPortal_mainAmit 2/EducationPortal_mainAmit/node_modules/rn-fetch-blob/android/build/intermediates/merged_manifests/debug/processDebugManifest/merged/AndroidManifest.xml:35:5-45:19
MERGED from [:rn-fetch-blob] /home/appideas-user8/Music/Projects/EducationPortal_mainAmit 2/EducationPortal_mainAmit/node_modules/rn-fetch-blob/android/build/intermediates/merged_manifests/debug/processDebugManifest/merged/AndroidManifest.xml:35:5-45:19
MERGED from [:react-native-image-picker] /home/appideas-user8/Music/Projects/EducationPortal_mainAmit 2/EducationPortal_mainAmit/node_modules/react-native-image-picker/android/build/intermediates/merged_manifests/debug/processDebugManifest/merged/AndroidManifest.xml:11:5-21:19
MERGED from [:react-native-image-picker] /home/appideas-user8/Music/Projects/EducationPortal_mainAmit 2/EducationPortal_mainAmit/node_modules/react-native-image-picker/android/build/intermediates/merged_manifests/debug/processDebugManifest/merged/AndroidManifest.xml:11:5-21:19
MERGED from [com.facebook.react:react-native:0.57.1] /home/appideas-user8/.gradle/caches/transforms-1/files-1.1/react-native-0.57.1.aar/e57aacb671f060af218955a5b76105c7/AndroidManifest.xml:13:5-20
MERGED from [com.facebook.react:react-native:0.57.1] /home/appideas-user8/.gradle/caches/transforms-1/files-1.1/react-native-0.57.1.aar/e57aacb671f060af218955a5b76105c7/AndroidManifest.xml:13:5-20
MERGED from [com.google.android.gms:play-services-gcm:16.0.0] /home/appideas-user8/.gradle/caches/transforms-1/files-1.1/play-services-gcm-16.0.0.aar/0d67e260b03059d87dc70e7593dcfce7/AndroidManifest.xml:26:5-20
MERGED from [com.google.android.gms:play-services-gcm:16.0.0] /home/appideas-user8/.gradle/caches/transforms-1/files-1.1/play-services-gcm-16.0.0.aar/0d67e260b03059d87dc70e7593dcfce7/AndroidManifest.xml:26:5-20
MERGED from [com.google.firebase:firebase-messaging:17.3.4] /home/appideas-user8/.gradle/caches/transforms-1/files-1.1/firebase-messaging-17.3.4.aar/f796a0cc563a1f86db1c1f8fe84d4c82/AndroidManifest.xml:22:5-35:19
MERGED from [com.google.firebase:firebase-messaging:17.3.4] /home/appideas-user8/.gradle/caches/transforms-1/files-1.1/firebase-messaging-17.3.4.aar/f796a0cc563a1f86db1c1f8fe84d4c82/AndroidManifest.xml:22:5-35:19
MERGED from [com.google.android.gms:play-services-iid:16.0.0] /home/appideas-user8/.gradle/caches/transforms-1/files-1.1/play-services-iid-16.0.0.aar/62572cad019c0d3f4f6fa1908f0e0f0f/AndroidManifest.xml:26:5-20
MERGED from [com.google.android.gms:play-services-iid:16.0.0] /home/appideas-user8/.gradle/caches/transforms-1/files-1.1/play-services-iid-16.0.0.aar/62572cad019c0d3f4f6fa1908f0e0f0f/AndroidManifest.xml:26:5-20
MERGED from [com.google.firebase:firebase-iid:17.0.4] /home/appideas-user8/.gradle/caches/transforms-1/files-1.1/firebase-iid-17.0.4.aar/df2cf79cf6bd7080f24b1f7eb3e0d659/AndroidManifest.xml:28:5-57:19
MERGED from [com.google.firebase:firebase-iid:17.0.4] /home/appideas-user8/.gradle/caches/transforms-1/files-1.1/firebase-iid-17.0.4.aar/df2cf79cf6bd7080f24b1f7eb3e0d659/AndroidManifest.xml:28:5-57:19
MERGED from [com.google.firebase:firebase-iid-interop:16.0.1] /home/appideas-user8/.gradle/caches/transforms-1/files-1.1/firebase-iid-interop-16.0.1.aar/f6c851ef467da755a63d4e597e0f485d/AndroidManifest.xml:7:5-8:19
MERGED from [com.google.firebase:firebase-iid-interop:16.0.1] /home/appideas-user8/.gradle/caches/transforms-1/files-1.1/firebase-iid-interop-16.0.1.aar/f6c851ef467da755a63d4e597e0f485d/AndroidManifest.xml:7:5-8:19
MERGED from [com.google.android.gms:play-services-base:16.0.1] /home/appideas-user8/.gradle/caches/transforms-1/files-1.1/play-services-base-16.0.1.aar/b7877f986c99fa8c4ecdb6981101cc60/AndroidManifest.xml:22:5-27:19
MERGED from [com.google.android.gms:play-services-base:16.0.1] /home/appideas-user8/.gradle/caches/transforms-1/files-1.1/play-services-base-16.0.1.aar/b7877f986c99fa8c4ecdb6981101cc60/AndroidManifest.xml:22:5-27:19
MERGED from [com.google.android.gms:play-services-stats:16.0.1] /home/appideas-user8/.gradle/caches/transforms-1/files-1.1/play-services-stats-16.0.1.aar/941d827e58ebef93c0d8ff6ba1cddcaf/AndroidManifest.xml:7:5-20
MERGED from [com.google.android.gms:play-services-stats:16.0.1] /home/appideas-user8/.gradle/caches/transforms-1/files-1.1/play-services-stats-16.0.1.aar/941d827e58ebef93c0d8ff6ba1cddcaf/AndroidManifest.xml:7:5-20
MERGED from [com.google.firebase:firebase-common:16.0.3] /home/appideas-user8/.gradle/caches/transforms-1/files-1.1/firebase-common-16.0.3.aar/90be46065eb4617a2794c29fbc97482c/AndroidManifest.xml:9:5-15:19
MERGED from [com.google.firebase:firebase-common:16.0.3] /home/appideas-user8/.gradle/caches/transforms-1/files-1.1/firebase-common-16.0.3.aar/90be46065eb4617a2794c29fbc97482c/AndroidManifest.xml:9:5-15:19
MERGED from [com.google.android.gms:play-services-tasks:16.0.1] /home/appideas-user8/.gradle/caches/transforms-1/files-1.1/play-services-tasks-16.0.1.aar/5854b513d319affcdd49a60cc87e09e3/AndroidManifest.xml:7:5-20
MERGED from [com.google.android.gms:play-services-tasks:16.0.1] /home/appideas-user8/.gradle/caches/transforms-1/files-1.1/play-services-tasks-16.0.1.aar/5854b513d319affcdd49a60cc87e09e3/AndroidManifest.xml:7:5-20
MERGED from [com.google.firebase:firebase-measurement-connector:17.0.1] /home/appideas-user8/.gradle/caches/transforms-1/files-1.1/firebase-measurement-connector-17.0.1.aar/6949b285383a826afcb1c467813c5240/AndroidManifest.xml:22:5-23:19
MERGED from [com.google.firebase:firebase-measurement-connector:17.0.1] /home/appideas-user8/.gradle/caches/transforms-1/files-1.1/firebase-measurement-connector-17.0.1.aar/6949b285383a826afcb1c467813c5240/AndroidManifest.xml:22:5-23:19
MERGED from [com.google.android.gms:play-services-basement:16.0.1] /home/appideas-user8/.gradle/caches/transforms-1/files-1.1/play-services-basement-16.0.1.aar/4e909e27b315928f32eaa8c5e35b2bde/AndroidManifest.xml:22:5-26:19
MERGED from [com.google.android.gms:play-services-basement:16.0.1] /home/appideas-user8/.gradle/caches/transforms-1/files-1.1/play-services-basement-16.0.1.aar/4e909e27b315928f32eaa8c5e35b2bde/AndroidManifest.xml:22:5-26:19
MERGED from [com.android.support:support-v4:26.1.0] /home/appideas-user8/.gradle/caches/transforms-1/files-1.1/support-v4-26.1.0.aar/57521508716e1dafb60accfd6f1c79e7/AndroidManifest.xml:25:5-29:19
MERGED from [com.android.support:support-v4:26.1.0] /home/appideas-user8/.gradle/caches/transforms-1/files-1.1/support-v4-26.1.0.aar/57521508716e1dafb60accfd6f1c79e7/AndroidManifest.xml:25:5-29:19
MERGED from [com.android.support:support-media-compat:26.1.0] /home/appideas-user8/.gradle/caches/transforms-1/files-1.1/support-media-compat-26.1.0.aar/a95b062805b97cd1d3afedcaa941566a/AndroidManifest.xml:25:5-29:19
MERGED from [com.android.support:support-media-compat:26.1.0] /home/appideas-user8/.gradle/caches/transforms-1/files-1.1/support-media-compat-26.1.0.aar/a95b062805b97cd1d3afedcaa941566a/AndroidManifest.xml:25:5-29:19
MERGED from [com.android.support:support-compat:28.0.0] /home/appideas-user8/.gradle/caches/transforms-1/files-1.1/support-compat-28.0.0.aar/2c372e0c15d8afb4ca9fd36d4bf6b573/AndroidManifest.xml:22:5-94
MERGED from [com.android.support:support-compat:28.0.0] /home/appideas-user8/.gradle/caches/transforms-1/files-1.1/support-compat-28.0.0.aar/2c372e0c15d8afb4ca9fd36d4bf6b573/AndroidManifest.xml:22:5-94
MERGED from [com.android.support:versionedparcelable:28.0.0] /home/appideas-user8/.gradle/caches/transforms-1/files-1.1/versionedparcelable-28.0.0.aar/f5b1a1ce0ecc22e5ecaaf49ceb87237b/AndroidManifest.xml:22:5-23:19
MERGED from [com.android.support:versionedparcelable:28.0.0] /home/appideas-user8/.gradle/caches/transforms-1/files-1.1/versionedparcelable-28.0.0.aar/f5b1a1ce0ecc22e5ecaaf49ceb87237b/AndroidManifest.xml:22:5-23:19
MERGED from [com.facebook.soloader:soloader:0.5.1] /home/appideas-user8/.gradle/caches/transforms-1/files-1.1/soloader-0.5.1.aar/ba383a28ca2642985bda6a312e99d355/AndroidManifest.xml:11:5-20
MERGED from [com.facebook.soloader:soloader:0.5.1] /home/appideas-user8/.gradle/caches/transforms-1/files-1.1/soloader-0.5.1.aar/ba383a28ca2642985bda6a312e99d355/AndroidManifest.xml:11:5-20
MERGED from [org.webkit:android-jsc:r174650] /home/appideas-user8/.gradle/caches/transforms-1/files-1.1/android-jsc-r174650.aar/851de7a26f243d76e0eec46063fa37f8/AndroidManifest.xml:2:3-17
MERGED from [org.webkit:android-jsc:r174650] /home/appideas-user8/.gradle/caches/transforms-1/files-1.1/android-jsc-r174650.aar/851de7a26f243d76e0eec46063fa37f8/AndroidManifest.xml:2:3-17
	android:appComponentFactory
		ADDED from [com.android.support:support-compat:28.0.0] /home/appideas-user8/.gradle/caches/transforms-1/files-1.1/support-compat-28.0.0.aar/2c372e0c15d8afb4ca9fd36d4bf6b573/AndroidManifest.xml:22:18-91
	android:label
		ADDED from /home/appideas-user8/Music/Projects/EducationPortal_mainAmit 2/EducationPortal_mainAmit/android/app/src/main/AndroidManifest.xml:12:7-39
	android:icon
		ADDED from /home/appideas-user8/Music/Projects/EducationPortal_mainAmit 2/EducationPortal_mainAmit/android/app/src/main/AndroidManifest.xml:13:7-36
	android:allowBackup
		ADDED from /home/appideas-user8/Music/Projects/EducationPortal_mainAmit 2/EducationPortal_mainAmit/android/app/src/main/AndroidManifest.xml:14:7-34
	android:theme
		ADDED from /home/appideas-user8/Music/Projects/EducationPortal_mainAmit 2/EducationPortal_mainAmit/android/app/src/main/AndroidManifest.xml:16:7-38
	android:usesCleartextTraffic
		ADDED from /home/appideas-user8/Music/Projects/EducationPortal_mainAmit 2/EducationPortal_mainAmit/android/app/src/main/AndroidManifest.xml:15:7-42
	android:name
		ADDED from /home/appideas-user8/Music/Projects/EducationPortal_mainAmit 2/EducationPortal_mainAmit/android/app/src/main/AndroidManifest.xml:11:7-38
activity#com.iasjunior.MainActivity
ADDED from /home/appideas-user8/Music/Projects/EducationPortal_mainAmit 2/EducationPortal_mainAmit/android/app/src/main/AndroidManifest.xml:17:7-24:18
	android:screenOrientation
		ADDED from /home/appideas-user8/Music/Projects/EducationPortal_mainAmit 2/EducationPortal_mainAmit/android/app/src/main/AndroidManifest.xml:20:11-47
	android:label
		ADDED from /home/appideas-user8/Music/Projects/EducationPortal_mainAmit 2/EducationPortal_mainAmit/android/app/src/main/AndroidManifest.xml:19:9-41
	android:windowSoftInputMode
		ADDED from /home/appideas-user8/Music/Projects/EducationPortal_mainAmit 2/EducationPortal_mainAmit/android/app/src/main/AndroidManifest.xml:22:9-51
	android:configChanges
		ADDED from /home/appideas-user8/Music/Projects/EducationPortal_mainAmit 2/EducationPortal_mainAmit/android/app/src/main/AndroidManifest.xml:21:9-79
	android:name
		ADDED from /home/appideas-user8/Music/Projects/EducationPortal_mainAmit 2/EducationPortal_mainAmit/android/app/src/main/AndroidManifest.xml:18:9-37
activity#com.iasjunior.SplashActivity
ADDED from /home/appideas-user8/Music/Projects/EducationPortal_mainAmit 2/EducationPortal_mainAmit/android/app/src/main/AndroidManifest.xml:25:9-33:20
	android:screenOrientation
		ADDED from /home/appideas-user8/Music/Projects/EducationPortal_mainAmit 2/EducationPortal_mainAmit/android/app/src/main/AndroidManifest.xml:25:60-96
	android:name
		ADDED from /home/appideas-user8/Music/Projects/EducationPortal_mainAmit 2/EducationPortal_mainAmit/android/app/src/main/AndroidManifest.xml:25:19-49
intent-filter#action:name:android.intent.action.DOWNLOAD_COMPLETE+action:name:android.intent.action.DOWNLOAD_COMPLETE+action:name:android.intent.action.MAIN+category:name:android.intent.category.LAUNCHER
ADDED from /home/appideas-user8/Music/Projects/EducationPortal_mainAmit 2/EducationPortal_mainAmit/android/app/src/main/AndroidManifest.xml:27:13-32:29
action#android.intent.action.MAIN
ADDED from /home/appideas-user8/Music/Projects/EducationPortal_mainAmit 2/EducationPortal_mainAmit/android/app/src/main/AndroidManifest.xml:28:17-69
	android:name
		ADDED from /home/appideas-user8/Music/Projects/EducationPortal_mainAmit 2/EducationPortal_mainAmit/android/app/src/main/AndroidManifest.xml:28:25-66
category#android.intent.category.LAUNCHER
ADDED from /home/appideas-user8/Music/Projects/EducationPortal_mainAmit 2/EducationPortal_mainAmit/android/app/src/main/AndroidManifest.xml:29:17-77
	android:name
		ADDED from /home/appideas-user8/Music/Projects/EducationPortal_mainAmit 2/EducationPortal_mainAmit/android/app/src/main/AndroidManifest.xml:29:27-74
action#android.intent.action.DOWNLOAD_COMPLETE
ADDED from /home/appideas-user8/Music/Projects/EducationPortal_mainAmit 2/EducationPortal_mainAmit/android/app/src/main/AndroidManifest.xml:30:17-81
	android:name
		ADDED from /home/appideas-user8/Music/Projects/EducationPortal_mainAmit 2/EducationPortal_mainAmit/android/app/src/main/AndroidManifest.xml:30:25-79
activity#com.facebook.react.devsupport.DevSettingsActivity
ADDED from /home/appideas-user8/Music/Projects/EducationPortal_mainAmit 2/EducationPortal_mainAmit/android/app/src/main/AndroidManifest.xml:34:7-35:13
	android:screenOrientation
		ADDED from /home/appideas-user8/Music/Projects/EducationPortal_mainAmit 2/EducationPortal_mainAmit/android/app/src/main/AndroidManifest.xml:34:92-128
	android:name
		ADDED from /home/appideas-user8/Music/Projects/EducationPortal_mainAmit 2/EducationPortal_mainAmit/android/app/src/main/AndroidManifest.xml:34:17-81
uses-sdk
INJECTED from /home/appideas-user8/Music/Projects/EducationPortal_mainAmit 2/EducationPortal_mainAmit/android/app/src/main/AndroidManifest.xml reason: use-sdk injection requested
INJECTED from /home/appideas-user8/Music/Projects/EducationPortal_mainAmit 2/EducationPortal_mainAmit/android/app/src/main/AndroidManifest.xml
INJECTED from /home/appideas-user8/Music/Projects/EducationPortal_mainAmit 2/EducationPortal_mainAmit/android/app/src/main/AndroidManifest.xml
MERGED from [:react-native-document-picker] /home/appideas-user8/Music/Projects/EducationPortal_mainAmit 2/EducationPortal_mainAmit/node_modules/react-native-document-picker/android/build/intermediates/merged_manifests/debug/processDebugManifest/merged/AndroidManifest.xml:7:5-9:41
MERGED from [:react-native-document-picker] /home/appideas-user8/Music/Projects/EducationPortal_mainAmit 2/EducationPortal_mainAmit/node_modules/react-native-document-picker/android/build/intermediates/merged_manifests/debug/processDebugManifest/merged/AndroidManifest.xml:7:5-9:41
MERGED from [:react-native-push-notification] /home/appideas-user8/Music/Projects/EducationPortal_mainAmit 2/EducationPortal_mainAmit/node_modules/react-native-push-notification/android/build/intermediates/merged_manifests/debug/processDebugManifest/merged/AndroidManifest.xml:7:5-9:41
MERGED from [:react-native-push-notification] /home/appideas-user8/Music/Projects/EducationPortal_mainAmit 2/EducationPortal_mainAmit/node_modules/react-native-push-notification/android/build/intermediates/merged_manifests/debug/processDebugManifest/merged/AndroidManifest.xml:7:5-9:41
MERGED from [:react-native-html-to-pdf] /home/appideas-user8/Music/Projects/EducationPortal_mainAmit 2/EducationPortal_mainAmit/node_modules/react-native-html-to-pdf/android/build/intermediates/merged_manifests/debug/processDebugManifest/merged/AndroidManifest.xml:7:5-9:41
MERGED from [:react-native-html-to-pdf] /home/appideas-user8/Music/Projects/EducationPortal_mainAmit 2/EducationPortal_mainAmit/node_modules/react-native-html-to-pdf/android/build/intermediates/merged_manifests/debug/processDebugManifest/merged/AndroidManifest.xml:7:5-9:41
MERGED from [:rn-fetch-blob] /home/appideas-user8/Music/Projects/EducationPortal_mainAmit 2/EducationPortal_mainAmit/node_modules/rn-fetch-blob/android/build/intermediates/merged_manifests/debug/processDebugManifest/merged/AndroidManifest.xml:7:5-9:41
MERGED from [:rn-fetch-blob] /home/appideas-user8/Music/Projects/EducationPortal_mainAmit 2/EducationPortal_mainAmit/node_modules/rn-fetch-blob/android/build/intermediates/merged_manifests/debug/processDebugManifest/merged/AndroidManifest.xml:7:5-9:41
MERGED from [:react-native-youtube] /home/appideas-user8/Music/Projects/EducationPortal_mainAmit 2/EducationPortal_mainAmit/node_modules/react-native-youtube/android/build/intermediates/merged_manifests/debug/processDebugManifest/merged/AndroidManifest.xml:7:5-9:41
MERGED from [:react-native-youtube] /home/appideas-user8/Music/Projects/EducationPortal_mainAmit 2/EducationPortal_mainAmit/node_modules/react-native-youtube/android/build/intermediates/merged_manifests/debug/processDebugManifest/merged/AndroidManifest.xml:7:5-9:41
MERGED from [:react-native-video] /home/appideas-user8/Music/Projects/EducationPortal_mainAmit 2/EducationPortal_mainAmit/node_modules/react-native-video/android-exoplayer/build/intermediates/merged_manifests/debug/processDebugManifest/merged/AndroidManifest.xml:7:5-9:41
MERGED from [:react-native-video] /home/appideas-user8/Music/Projects/EducationPortal_mainAmit 2/EducationPortal_mainAmit/node_modules/react-native-video/android-exoplayer/build/intermediates/merged_manifests/debug/processDebugManifest/merged/AndroidManifest.xml:7:5-9:41
MERGED from [:react-native-vector-icons] /home/appideas-user8/Music/Projects/EducationPortal_mainAmit 2/EducationPortal_mainAmit/node_modules/react-native-vector-icons/android/build/intermediates/merged_manifests/debug/processDebugManifest/merged/AndroidManifest.xml:7:5-9:41
MERGED from [:react-native-vector-icons] /home/appideas-user8/Music/Projects/EducationPortal_mainAmit 2/EducationPortal_mainAmit/node_modules/react-native-vector-icons/android/build/intermediates/merged_manifests/debug/processDebugManifest/merged/AndroidManifest.xml:7:5-9:41
MERGED from [:react-native-pdf] /home/appideas-user8/Music/Projects/EducationPortal_mainAmit 2/EducationPortal_mainAmit/node_modules/react-native-pdf/android/build/intermediates/merged_manifests/debug/processDebugManifest/merged/AndroidManifest.xml:5:5-7:41
MERGED from [:react-native-pdf] /home/appideas-user8/Music/Projects/EducationPortal_mainAmit 2/EducationPortal_mainAmit/node_modules/react-native-pdf/android/build/intermediates/merged_manifests/debug/processDebugManifest/merged/AndroidManifest.xml:5:5-7:41
MERGED from [:react-native-image-picker] /home/appideas-user8/Music/Projects/EducationPortal_mainAmit 2/EducationPortal_mainAmit/node_modules/react-native-image-picker/android/build/intermediates/merged_manifests/debug/processDebugManifest/merged/AndroidManifest.xml:7:5-9:41
MERGED from [:react-native-image-picker] /home/appideas-user8/Music/Projects/EducationPortal_mainAmit 2/EducationPortal_mainAmit/node_modules/react-native-image-picker/android/build/intermediates/merged_manifests/debug/processDebugManifest/merged/AndroidManifest.xml:7:5-9:41
MERGED from [:react-native-svg] /home/appideas-user8/Music/Projects/EducationPortal_mainAmit 2/EducationPortal_mainAmit/node_modules/react-native-svg/android/build/intermediates/merged_manifests/debug/processDebugManifest/merged/AndroidManifest.xml:7:5-9:41
MERGED from [:react-native-svg] /home/appideas-user8/Music/Projects/EducationPortal_mainAmit 2/EducationPortal_mainAmit/node_modules/react-native-svg/android/build/intermediates/merged_manifests/debug/processDebugManifest/merged/AndroidManifest.xml:7:5-9:41
MERGED from [com.facebook.react:react-native:0.57.1] /home/appideas-user8/.gradle/caches/transforms-1/files-1.1/react-native-0.57.1.aar/e57aacb671f060af218955a5b76105c7/AndroidManifest.xml:7:5-9:41
MERGED from [com.facebook.react:react-native:0.57.1] /home/appideas-user8/.gradle/caches/transforms-1/files-1.1/react-native-0.57.1.aar/e57aacb671f060af218955a5b76105c7/AndroidManifest.xml:7:5-9:41
MERGED from [com.android.support:appcompat-v7:28.0.0] /home/appideas-user8/.gradle/caches/transforms-1/files-1.1/appcompat-v7-28.0.0.aar/1aee82dc05eac0034c9654bc60a6d5a1/AndroidManifest.xml:20:5-44
MERGED from [com.android.support:appcompat-v7:28.0.0] /home/appideas-user8/.gradle/caches/transforms-1/files-1.1/appcompat-v7-28.0.0.aar/1aee82dc05eac0034c9654bc60a6d5a1/AndroidManifest.xml:20:5-44
MERGED from [com.google.android.gms:play-services-gcm:16.0.0] /home/appideas-user8/.gradle/caches/transforms-1/files-1.1/play-services-gcm-16.0.0.aar/0d67e260b03059d87dc70e7593dcfce7/AndroidManifest.xml:20:5-44
MERGED from [com.google.android.gms:play-services-gcm:16.0.0] /home/appideas-user8/.gradle/caches/transforms-1/files-1.1/play-services-gcm-16.0.0.aar/0d67e260b03059d87dc70e7593dcfce7/AndroidManifest.xml:20:5-44
MERGED from [me.leolin:ShortcutBadger:1.1.8] /home/appideas-user8/.gradle/caches/transforms-1/files-1.1/ShortcutBadger-1.1.8.aar/d2918dcb14f1625628a324cdee1bca8c/AndroidManifest.xml:7:5-9:41
MERGED from [me.leolin:ShortcutBadger:1.1.8] /home/appideas-user8/.gradle/caches/transforms-1/files-1.1/ShortcutBadger-1.1.8.aar/d2918dcb14f1625628a324cdee1bca8c/AndroidManifest.xml:7:5-9:41
MERGED from [com.google.firebase:firebase-messaging:17.3.4] /home/appideas-user8/.gradle/caches/transforms-1/files-1.1/firebase-messaging-17.3.4.aar/f796a0cc563a1f86db1c1f8fe84d4c82/AndroidManifest.xml:20:5-44
MERGED from [com.google.firebase:firebase-messaging:17.3.4] /home/appideas-user8/.gradle/caches/transforms-1/files-1.1/firebase-messaging-17.3.4.aar/f796a0cc563a1f86db1c1f8fe84d4c82/AndroidManifest.xml:20:5-44
MERGED from [com.google.android.exoplayer:exoplayer:2.7.3] /home/appideas-user8/.gradle/caches/transforms-1/files-1.1/exoplayer-2.7.3.aar/86ef4b11eb6827ca9690a6dbdfc0b724/AndroidManifest.xml:20:5-22:41
MERGED from [com.google.android.exoplayer:exoplayer:2.7.3] /home/appideas-user8/.gradle/caches/transforms-1/files-1.1/exoplayer-2.7.3.aar/86ef4b11eb6827ca9690a6dbdfc0b724/AndroidManifest.xml:20:5-22:41
MERGED from [com.google.android.exoplayer:extension-okhttp:2.7.3] /home/appideas-user8/.gradle/caches/transforms-1/files-1.1/extension-okhttp-2.7.3.aar/9431df03d76afc01adcf040cee8982df/AndroidManifest.xml:20:5-22:41
MERGED from [com.google.android.exoplayer:extension-okhttp:2.7.3] /home/appideas-user8/.gradle/caches/transforms-1/files-1.1/extension-okhttp-2.7.3.aar/9431df03d76afc01adcf040cee8982df/AndroidManifest.xml:20:5-22:41
MERGED from [com.facebook.fresco:imagepipeline-okhttp3:1.10.0] /home/appideas-user8/.gradle/caches/transforms-1/files-1.1/imagepipeline-okhttp3-1.10.0.aar/4739725be1dda469361274b40014eba1/AndroidManifest.xml:5:5-7:41
MERGED from [com.facebook.fresco:imagepipeline-okhttp3:1.10.0] /home/appideas-user8/.gradle/caches/transforms-1/files-1.1/imagepipeline-okhttp3-1.10.0.aar/4739725be1dda469361274b40014eba1/AndroidManifest.xml:5:5-7:41
MERGED from [com.github.barteksc:android-pdf-viewer:3.1.0-beta.1] /home/appideas-user8/.gradle/caches/transforms-1/files-1.1/android-pdf-viewer-3.1.0-beta.1.aar/bdf5f31f4fcf7cefba1105cb73e7fee1/AndroidManifest.xml:7:5-9:41
MERGED from [com.github.barteksc:android-pdf-viewer:3.1.0-beta.1] /home/appideas-user8/.gradle/caches/transforms-1/files-1.1/android-pdf-viewer-3.1.0-beta.1.aar/bdf5f31f4fcf7cefba1105cb73e7fee1/AndroidManifest.xml:7:5-9:41
MERGED from [com.google.android.exoplayer:exoplayer-dash:2.7.3] /home/appideas-user8/.gradle/caches/transforms-1/files-1.1/exoplayer-dash-2.7.3.aar/bdc3d60b0e33a0342c10fa49f01f5d6d/AndroidManifest.xml:20:5-22:41
MERGED from [com.google.android.exoplayer:exoplayer-dash:2.7.3] /home/appideas-user8/.gradle/caches/transforms-1/files-1.1/exoplayer-dash-2.7.3.aar/bdc3d60b0e33a0342c10fa49f01f5d6d/AndroidManifest.xml:20:5-22:41
MERGED from [com.google.android.exoplayer:exoplayer-hls:2.7.3] /home/appideas-user8/.gradle/caches/transforms-1/files-1.1/exoplayer-hls-2.7.3.aar/63845d653cecfcc835344c94a216f77e/AndroidManifest.xml:20:5-22:41
MERGED from [com.google.android.exoplayer:exoplayer-hls:2.7.3] /home/appideas-user8/.gradle/caches/transforms-1/files-1.1/exoplayer-hls-2.7.3.aar/63845d653cecfcc835344c94a216f77e/AndroidManifest.xml:20:5-22:41
MERGED from [com.google.android.exoplayer:exoplayer-smoothstreaming:2.7.3] /home/appideas-user8/.gradle/caches/transforms-1/files-1.1/exoplayer-smoothstreaming-2.7.3.aar/5a63817ec00f886c82a0303583f5e505/AndroidManifest.xml:20:5-22:41
MERGED from [com.google.android.exoplayer:exoplayer-smoothstreaming:2.7.3] /home/appideas-user8/.gradle/caches/transforms-1/files-1.1/exoplayer-smoothstreaming-2.7.3.aar/5a63817ec00f886c82a0303583f5e505/AndroidManifest.xml:20:5-22:41
MERGED from [com.google.android.exoplayer:exoplayer-ui:2.7.3] /home/appideas-user8/.gradle/caches/transforms-1/files-1.1/exoplayer-ui-2.7.3.aar/cef2886f5e3d325ae921883306947e6b/AndroidManifest.xml:20:5-22:41
MERGED from [com.google.android.exoplayer:exoplayer-ui:2.7.3] /home/appideas-user8/.gradle/caches/transforms-1/files-1.1/exoplayer-ui-2.7.3.aar/cef2886f5e3d325ae921883306947e6b/AndroidManifest.xml:20:5-22:41
MERGED from [com.google.android.exoplayer:exoplayer-core:2.7.3] /home/appideas-user8/.gradle/caches/transforms-1/files-1.1/exoplayer-core-2.7.3.aar/bad8c76b2fb1c19abcd11ecfd4210961/AndroidManifest.xml:20:5-22:41
MERGED from [com.google.android.exoplayer:exoplayer-core:2.7.3] /home/appideas-user8/.gradle/caches/transforms-1/files-1.1/exoplayer-core-2.7.3.aar/bad8c76b2fb1c19abcd11ecfd4210961/AndroidManifest.xml:20:5-22:41
MERGED from [com.google.android.gms:play-services-iid:16.0.0] /home/appideas-user8/.gradle/caches/transforms-1/files-1.1/play-services-iid-16.0.0.aar/62572cad019c0d3f4f6fa1908f0e0f0f/AndroidManifest.xml:20:5-44
MERGED from [com.google.android.gms:play-services-iid:16.0.0] /home/appideas-user8/.gradle/caches/transforms-1/files-1.1/play-services-iid-16.0.0.aar/62572cad019c0d3f4f6fa1908f0e0f0f/AndroidManifest.xml:20:5-44
MERGED from [com.google.firebase:firebase-iid:17.0.4] /home/appideas-user8/.gradle/caches/transforms-1/files-1.1/firebase-iid-17.0.4.aar/df2cf79cf6bd7080f24b1f7eb3e0d659/AndroidManifest.xml:20:5-44
MERGED from [com.google.firebase:firebase-iid:17.0.4] /home/appideas-user8/.gradle/caches/transforms-1/files-1.1/firebase-iid-17.0.4.aar/df2cf79cf6bd7080f24b1f7eb3e0d659/AndroidManifest.xml:20:5-44
MERGED from [com.google.firebase:firebase-iid-interop:16.0.1] /home/appideas-user8/.gradle/caches/transforms-1/files-1.1/firebase-iid-interop-16.0.1.aar/f6c851ef467da755a63d4e597e0f485d/AndroidManifest.xml:5:5-44
MERGED from [com.google.firebase:firebase-iid-interop:16.0.1] /home/appideas-user8/.gradle/caches/transforms-1/files-1.1/firebase-iid-interop-16.0.1.aar/f6c851ef467da755a63d4e597e0f485d/AndroidManifest.xml:5:5-44
MERGED from [com.google.android.gms:play-services-base:16.0.1] /home/appideas-user8/.gradle/caches/transforms-1/files-1.1/play-services-base-16.0.1.aar/b7877f986c99fa8c4ecdb6981101cc60/AndroidManifest.xml:20:5-44
MERGED from [com.google.android.gms:play-services-base:16.0.1] /home/appideas-user8/.gradle/caches/transforms-1/files-1.1/play-services-base-16.0.1.aar/b7877f986c99fa8c4ecdb6981101cc60/AndroidManifest.xml:20:5-44
MERGED from [com.google.android.gms:play-services-stats:16.0.1] /home/appideas-user8/.gradle/caches/transforms-1/files-1.1/play-services-stats-16.0.1.aar/941d827e58ebef93c0d8ff6ba1cddcaf/AndroidManifest.xml:5:5-44
MERGED from [com.google.android.gms:play-services-stats:16.0.1] /home/appideas-user8/.gradle/caches/transforms-1/files-1.1/play-services-stats-16.0.1.aar/941d827e58ebef93c0d8ff6ba1cddcaf/AndroidManifest.xml:5:5-44
MERGED from [com.google.firebase:firebase-common:16.0.3] /home/appideas-user8/.gradle/caches/transforms-1/files-1.1/firebase-common-16.0.3.aar/90be46065eb4617a2794c29fbc97482c/AndroidManifest.xml:5:5-7:41
MERGED from [com.google.firebase:firebase-common:16.0.3] /home/appideas-user8/.gradle/caches/transforms-1/files-1.1/firebase-common-16.0.3.aar/90be46065eb4617a2794c29fbc97482c/AndroidManifest.xml:5:5-7:41
MERGED from [com.google.android.gms:play-services-tasks:16.0.1] /home/appideas-user8/.gradle/caches/transforms-1/files-1.1/play-services-tasks-16.0.1.aar/5854b513d319affcdd49a60cc87e09e3/AndroidManifest.xml:5:5-44
MERGED from [com.google.android.gms:play-services-tasks:16.0.1] /home/appideas-user8/.gradle/caches/transforms-1/files-1.1/play-services-tasks-16.0.1.aar/5854b513d319affcdd49a60cc87e09e3/AndroidManifest.xml:5:5-44
MERGED from [com.google.firebase:firebase-measurement-connector:17.0.1] /home/appideas-user8/.gradle/caches/transforms-1/files-1.1/firebase-measurement-connector-17.0.1.aar/6949b285383a826afcb1c467813c5240/AndroidManifest.xml:20:5-44
MERGED from [com.google.firebase:firebase-measurement-connector:17.0.1] /home/appideas-user8/.gradle/caches/transforms-1/files-1.1/firebase-measurement-connector-17.0.1.aar/6949b285383a826afcb1c467813c5240/AndroidManifest.xml:20:5-44
MERGED from [com.google.android.gms:play-services-basement:16.0.1] /home/appideas-user8/.gradle/caches/transforms-1/files-1.1/play-services-basement-16.0.1.aar/4e909e27b315928f32eaa8c5e35b2bde/AndroidManifest.xml:20:5-44
MERGED from [com.google.android.gms:play-services-basement:16.0.1] /home/appideas-user8/.gradle/caches/transforms-1/files-1.1/play-services-basement-16.0.1.aar/4e909e27b315928f32eaa8c5e35b2bde/AndroidManifest.xml:20:5-44
MERGED from [com.github.barteksc:pdfium-android:1.9.0] /home/appideas-user8/.gradle/caches/transforms-1/files-1.1/pdfium-android-1.9.0.aar/089a29c90e79b6b60a334984f450bbca/AndroidManifest.xml:7:5-9:41
MERGED from [com.github.barteksc:pdfium-android:1.9.0] /home/appideas-user8/.gradle/caches/transforms-1/files-1.1/pdfium-android-1.9.0.aar/089a29c90e79b6b60a334984f450bbca/AndroidManifest.xml:7:5-9:41
MERGED from [com.android.support:support-v4:26.1.0] /home/appideas-user8/.gradle/caches/transforms-1/files-1.1/support-v4-26.1.0.aar/57521508716e1dafb60accfd6f1c79e7/AndroidManifest.xml:21:5-23:54
MERGED from [com.android.support:support-v4:26.1.0] /home/appideas-user8/.gradle/caches/transforms-1/files-1.1/support-v4-26.1.0.aar/57521508716e1dafb60accfd6f1c79e7/AndroidManifest.xml:21:5-23:54
MERGED from [com.android.support:support-media-compat:26.1.0] /home/appideas-user8/.gradle/caches/transforms-1/files-1.1/support-media-compat-26.1.0.aar/a95b062805b97cd1d3afedcaa941566a/AndroidManifest.xml:21:5-23:63
MERGED from [com.android.support:support-media-compat:26.1.0] /home/appideas-user8/.gradle/caches/transforms-1/files-1.1/support-media-compat-26.1.0.aar/a95b062805b97cd1d3afedcaa941566a/AndroidManifest.xml:21:5-23:63
MERGED from [com.android.support:animated-vector-drawable:28.0.0] /home/appideas-user8/.gradle/caches/transforms-1/files-1.1/animated-vector-drawable-28.0.0.aar/0a3deb00dc053e546f454418fc51e4a3/AndroidManifest.xml:20:5-44
MERGED from [com.android.support:animated-vector-drawable:28.0.0] /home/appideas-user8/.gradle/caches/transforms-1/files-1.1/animated-vector-drawable-28.0.0.aar/0a3deb00dc053e546f454418fc51e4a3/AndroidManifest.xml:20:5-44
MERGED from [com.android.support:support-vector-drawable:28.0.0] /home/appideas-user8/.gradle/caches/transforms-1/files-1.1/support-vector-drawable-28.0.0.aar/6015192b30b6cbff8c29f192ae86170d/AndroidManifest.xml:20:5-44
MERGED from [com.android.support:support-vector-drawable:28.0.0] /home/appideas-user8/.gradle/caches/transforms-1/files-1.1/support-vector-drawable-28.0.0.aar/6015192b30b6cbff8c29f192ae86170d/AndroidManifest.xml:20:5-44
MERGED from [com.android.support:support-fragment:28.0.0] /home/appideas-user8/.gradle/caches/transforms-1/files-1.1/support-fragment-28.0.0.aar/ddda42a3add3207fe15399579d571a3f/AndroidManifest.xml:20:5-44
MERGED from [com.android.support:support-fragment:28.0.0] /home/appideas-user8/.gradle/caches/transforms-1/files-1.1/support-fragment-28.0.0.aar/ddda42a3add3207fe15399579d571a3f/AndroidManifest.xml:20:5-44
MERGED from [com.android.support:support-core-ui:28.0.0] /home/appideas-user8/.gradle/caches/transforms-1/files-1.1/support-core-ui-28.0.0.aar/322a589c4c4ade092a58d71d53867e05/AndroidManifest.xml:20:5-44
MERGED from [com.android.support:support-core-ui:28.0.0] /home/appideas-user8/.gradle/caches/transforms-1/files-1.1/support-core-ui-28.0.0.aar/322a589c4c4ade092a58d71d53867e05/AndroidManifest.xml:20:5-44
MERGED from [com.android.support:support-core-utils:28.0.0] /home/appideas-user8/.gradle/caches/transforms-1/files-1.1/support-core-utils-28.0.0.aar/21a602f528abdae42333b91e41759021/AndroidManifest.xml:20:5-44
MERGED from [com.android.support:support-core-utils:28.0.0] /home/appideas-user8/.gradle/caches/transforms-1/files-1.1/support-core-utils-28.0.0.aar/21a602f528abdae42333b91e41759021/AndroidManifest.xml:20:5-44
MERGED from [com.android.support:loader:28.0.0] /home/appideas-user8/.gradle/caches/transforms-1/files-1.1/loader-28.0.0.aar/b32f1b99a131abb2eb01dd7c11d98a6e/AndroidManifest.xml:20:5-44
MERGED from [com.android.support:loader:28.0.0] /home/appideas-user8/.gradle/caches/transforms-1/files-1.1/loader-28.0.0.aar/b32f1b99a131abb2eb01dd7c11d98a6e/AndroidManifest.xml:20:5-44
MERGED from [com.android.support:viewpager:28.0.0] /home/appideas-user8/.gradle/caches/transforms-1/files-1.1/viewpager-28.0.0.aar/7a5b41b5112cc371e090f53ac3b9a465/AndroidManifest.xml:20:5-44
MERGED from [com.android.support:viewpager:28.0.0] /home/appideas-user8/.gradle/caches/transforms-1/files-1.1/viewpager-28.0.0.aar/7a5b41b5112cc371e090f53ac3b9a465/AndroidManifest.xml:20:5-44
MERGED from [com.android.support:coordinatorlayout:28.0.0] /home/appideas-user8/.gradle/caches/transforms-1/files-1.1/coordinatorlayout-28.0.0.aar/2f06f187758181d881538a7c9204793e/AndroidManifest.xml:20:5-44
MERGED from [com.android.support:coordinatorlayout:28.0.0] /home/appideas-user8/.gradle/caches/transforms-1/files-1.1/coordinatorlayout-28.0.0.aar/2f06f187758181d881538a7c9204793e/AndroidManifest.xml:20:5-44
MERGED from [com.android.support:drawerlayout:28.0.0] /home/appideas-user8/.gradle/caches/transforms-1/files-1.1/drawerlayout-28.0.0.aar/113f7fd541fd84ec61a89be9c634e731/AndroidManifest.xml:20:5-44
MERGED from [com.android.support:drawerlayout:28.0.0] /home/appideas-user8/.gradle/caches/transforms-1/files-1.1/drawerlayout-28.0.0.aar/113f7fd541fd84ec61a89be9c634e731/AndroidManifest.xml:20:5-44
MERGED from [com.android.support:slidingpanelayout:28.0.0] /home/appideas-user8/.gradle/caches/transforms-1/files-1.1/slidingpanelayout-28.0.0.aar/e274fc339b84b5ccb165520bf9d2fa20/AndroidManifest.xml:20:5-44
MERGED from [com.android.support:slidingpanelayout:28.0.0] /home/appideas-user8/.gradle/caches/transforms-1/files-1.1/slidingpanelayout-28.0.0.aar/e274fc339b84b5ccb165520bf9d2fa20/AndroidManifest.xml:20:5-44
MERGED from [com.android.support:customview:28.0.0] /home/appideas-user8/.gradle/caches/transforms-1/files-1.1/customview-28.0.0.aar/b4d8dc2ec3ffa85b45ab7017994e829d/AndroidManifest.xml:20:5-44
MERGED from [com.android.support:customview:28.0.0] /home/appideas-user8/.gradle/caches/transforms-1/files-1.1/customview-28.0.0.aar/b4d8dc2ec3ffa85b45ab7017994e829d/AndroidManifest.xml:20:5-44
MERGED from [com.android.support:swiperefreshlayout:28.0.0] /home/appideas-user8/.gradle/caches/transforms-1/files-1.1/swiperefreshlayout-28.0.0.aar/48bfe4b55cffe57505cae9c2544b5d08/AndroidManifest.xml:20:5-44
MERGED from [com.android.support:swiperefreshlayout:28.0.0] /home/appideas-user8/.gradle/caches/transforms-1/files-1.1/swiperefreshlayout-28.0.0.aar/48bfe4b55cffe57505cae9c2544b5d08/AndroidManifest.xml:20:5-44
MERGED from [com.android.support:asynclayoutinflater:28.0.0] /home/appideas-user8/.gradle/caches/transforms-1/files-1.1/asynclayoutinflater-28.0.0.aar/652c097bb5dd760205ed3825dfa13d40/AndroidManifest.xml:20:5-44
MERGED from [com.android.support:asynclayoutinflater:28.0.0] /home/appideas-user8/.gradle/caches/transforms-1/files-1.1/asynclayoutinflater-28.0.0.aar/652c097bb5dd760205ed3825dfa13d40/AndroidManifest.xml:20:5-44
MERGED from [com.android.support:support-compat:28.0.0] /home/appideas-user8/.gradle/caches/transforms-1/files-1.1/support-compat-28.0.0.aar/2c372e0c15d8afb4ca9fd36d4bf6b573/AndroidManifest.xml:20:5-44
MERGED from [com.android.support:support-compat:28.0.0] /home/appideas-user8/.gradle/caches/transforms-1/files-1.1/support-compat-28.0.0.aar/2c372e0c15d8afb4ca9fd36d4bf6b573/AndroidManifest.xml:20:5-44
MERGED from [com.android.support:versionedparcelable:28.0.0] /home/appideas-user8/.gradle/caches/transforms-1/files-1.1/versionedparcelable-28.0.0.aar/f5b1a1ce0ecc22e5ecaaf49ceb87237b/AndroidManifest.xml:20:5-44
MERGED from [com.android.support:versionedparcelable:28.0.0] /home/appideas-user8/.gradle/caches/transforms-1/files-1.1/versionedparcelable-28.0.0.aar/f5b1a1ce0ecc22e5ecaaf49ceb87237b/AndroidManifest.xml:20:5-44
MERGED from [com.android.support:cursoradapter:28.0.0] /home/appideas-user8/.gradle/caches/transforms-1/files-1.1/cursoradapter-28.0.0.aar/b7a675fc8fbcd4e0e5410b65fda8967c/AndroidManifest.xml:20:5-44
MERGED from [com.android.support:cursoradapter:28.0.0] /home/appideas-user8/.gradle/caches/transforms-1/files-1.1/cursoradapter-28.0.0.aar/b7a675fc8fbcd4e0e5410b65fda8967c/AndroidManifest.xml:20:5-44
MERGED from [android.arch.lifecycle:runtime:1.1.1] /home/appideas-user8/.gradle/caches/transforms-1/files-1.1/runtime-1.1.1.aar/3f5fedabede0bd658105d65439130e94/AndroidManifest.xml:20:5-44
MERGED from [android.arch.lifecycle:runtime:1.1.1] /home/appideas-user8/.gradle/caches/transforms-1/files-1.1/runtime-1.1.1.aar/3f5fedabede0bd658105d65439130e94/AndroidManifest.xml:20:5-44
MERGED from [android.arch.lifecycle:livedata:1.1.1] /home/appideas-user8/.gradle/caches/transforms-1/files-1.1/livedata-1.1.1.aar/7ac998d507536d72a29c0de16219a540/AndroidManifest.xml:20:5-44
MERGED from [android.arch.lifecycle:livedata:1.1.1] /home/appideas-user8/.gradle/caches/transforms-1/files-1.1/livedata-1.1.1.aar/7ac998d507536d72a29c0de16219a540/AndroidManifest.xml:20:5-44
MERGED from [android.arch.lifecycle:livedata-core:1.1.1] /home/appideas-user8/.gradle/caches/transforms-1/files-1.1/livedata-core-1.1.1.aar/6efff4ecbf422494bfe5fc87555c23a0/AndroidManifest.xml:20:5-44
MERGED from [android.arch.lifecycle:livedata-core:1.1.1] /home/appideas-user8/.gradle/caches/transforms-1/files-1.1/livedata-core-1.1.1.aar/6efff4ecbf422494bfe5fc87555c23a0/AndroidManifest.xml:20:5-44
MERGED from [android.arch.core:runtime:1.1.1] /home/appideas-user8/.gradle/caches/transforms-1/files-1.1/runtime-1.1.1.aar/9ecc8aaec53daef1ff0501cc0048a450/AndroidManifest.xml:20:5-44
MERGED from [android.arch.core:runtime:1.1.1] /home/appideas-user8/.gradle/caches/transforms-1/files-1.1/runtime-1.1.1.aar/9ecc8aaec53daef1ff0501cc0048a450/AndroidManifest.xml:20:5-44
MERGED from [com.android.support:documentfile:28.0.0] /home/appideas-user8/.gradle/caches/transforms-1/files-1.1/documentfile-28.0.0.aar/fc951d1c85546f7c3c99adbd472f629c/AndroidManifest.xml:20:5-44
MERGED from [com.android.support:documentfile:28.0.0] /home/appideas-user8/.gradle/caches/transforms-1/files-1.1/documentfile-28.0.0.aar/fc951d1c85546f7c3c99adbd472f629c/AndroidManifest.xml:20:5-44
MERGED from [com.android.support:localbroadcastmanager:28.0.0] /home/appideas-user8/.gradle/caches/transforms-1/files-1.1/localbroadcastmanager-28.0.0.aar/77c2eb54574fc2c4aa88d7dba7a3da6e/AndroidManifest.xml:20:5-44
MERGED from [com.android.support:localbroadcastmanager:28.0.0] /home/appideas-user8/.gradle/caches/transforms-1/files-1.1/localbroadcastmanager-28.0.0.aar/77c2eb54574fc2c4aa88d7dba7a3da6e/AndroidManifest.xml:20:5-44
MERGED from [com.android.support:print:28.0.0] /home/appideas-user8/.gradle/caches/transforms-1/files-1.1/print-28.0.0.aar/85e616c39ba70542ac56e3e435388820/AndroidManifest.xml:20:5-44
MERGED from [com.android.support:print:28.0.0] /home/appideas-user8/.gradle/caches/transforms-1/files-1.1/print-28.0.0.aar/85e616c39ba70542ac56e3e435388820/AndroidManifest.xml:20:5-44
MERGED from [android.arch.lifecycle:viewmodel:1.1.1] /home/appideas-user8/.gradle/caches/transforms-1/files-1.1/viewmodel-1.1.1.aar/47ff71c26de95653a2718ba781974f34/AndroidManifest.xml:20:5-44
MERGED from [android.arch.lifecycle:viewmodel:1.1.1] /home/appideas-user8/.gradle/caches/transforms-1/files-1.1/viewmodel-1.1.1.aar/47ff71c26de95653a2718ba781974f34/AndroidManifest.xml:20:5-44
MERGED from [com.android.support:interpolator:28.0.0] /home/appideas-user8/.gradle/caches/transforms-1/files-1.1/interpolator-28.0.0.aar/558d72d11e4fe8a65fec143567331d00/AndroidManifest.xml:20:5-44
MERGED from [com.android.support:interpolator:28.0.0] /home/appideas-user8/.gradle/caches/transforms-1/files-1.1/interpolator-28.0.0.aar/558d72d11e4fe8a65fec143567331d00/AndroidManifest.xml:20:5-44
MERGED from [com.facebook.fresco:fresco:1.10.0] /home/appideas-user8/.gradle/caches/transforms-1/files-1.1/fresco-1.10.0.aar/bf0b0a2d8b9c6081926b514297ecfdd5/AndroidManifest.xml:5:5-7:41
MERGED from [com.facebook.fresco:fresco:1.10.0] /home/appideas-user8/.gradle/caches/transforms-1/files-1.1/fresco-1.10.0.aar/bf0b0a2d8b9c6081926b514297ecfdd5/AndroidManifest.xml:5:5-7:41
MERGED from [com.facebook.fresco:drawee:1.10.0] /home/appideas-user8/.gradle/caches/transforms-1/files-1.1/drawee-1.10.0.aar/5286666ae213ef715f94c799ae78a314/AndroidManifest.xml:5:5-7:41
MERGED from [com.facebook.fresco:drawee:1.10.0] /home/appideas-user8/.gradle/caches/transforms-1/files-1.1/drawee-1.10.0.aar/5286666ae213ef715f94c799ae78a314/AndroidManifest.xml:5:5-7:41
MERGED from [com.facebook.fresco:imagepipeline:1.10.0] /home/appideas-user8/.gradle/caches/transforms-1/files-1.1/imagepipeline-1.10.0.aar/28a8fdc6eff156065edb0bdab41ca3e0/AndroidManifest.xml:5:5-7:41
MERGED from [com.facebook.fresco:imagepipeline:1.10.0] /home/appideas-user8/.gradle/caches/transforms-1/files-1.1/imagepipeline-1.10.0.aar/28a8fdc6eff156065edb0bdab41ca3e0/AndroidManifest.xml:5:5-7:41
MERGED from [com.facebook.fresco:imagepipeline-base:1.10.0] /home/appideas-user8/.gradle/caches/transforms-1/files-1.1/imagepipeline-base-1.10.0.aar/7cf66174560413281590d1d096858a7a/AndroidManifest.xml:5:5-7:41
MERGED from [com.facebook.fresco:imagepipeline-base:1.10.0] /home/appideas-user8/.gradle/caches/transforms-1/files-1.1/imagepipeline-base-1.10.0.aar/7cf66174560413281590d1d096858a7a/AndroidManifest.xml:5:5-7:41
MERGED from [com.facebook.soloader:soloader:0.5.1] /home/appideas-user8/.gradle/caches/transforms-1/files-1.1/soloader-0.5.1.aar/ba383a28ca2642985bda6a312e99d355/AndroidManifest.xml:7:5-9:41
MERGED from [com.facebook.soloader:soloader:0.5.1] /home/appideas-user8/.gradle/caches/transforms-1/files-1.1/soloader-0.5.1.aar/ba383a28ca2642985bda6a312e99d355/AndroidManifest.xml:7:5-9:41
MERGED from [com.facebook.fresco:fbcore:1.10.0] /home/appideas-user8/.gradle/caches/transforms-1/files-1.1/fbcore-1.10.0.aar/02e129945cc100685a9fc2a795f0e372/AndroidManifest.xml:5:5-7:41
MERGED from [com.facebook.fresco:fbcore:1.10.0] /home/appideas-user8/.gradle/caches/transforms-1/files-1.1/fbcore-1.10.0.aar/02e129945cc100685a9fc2a795f0e372/AndroidManifest.xml:5:5-7:41
INJECTED from /home/appideas-user8/Music/Projects/EducationPortal_mainAmit 2/EducationPortal_mainAmit/android/app/src/main/AndroidManifest.xml
INJECTED from /home/appideas-user8/Music/Projects/EducationPortal_mainAmit 2/EducationPortal_mainAmit/android/app/src/main/AndroidManifest.xml
	tools:overrideLibrary
		ADDED from [com.android.support:support-v4:26.1.0] /home/appideas-user8/.gradle/caches/transforms-1/files-1.1/support-v4-26.1.0.aar/57521508716e1dafb60accfd6f1c79e7/AndroidManifest.xml:23:9-51
	android:targetSdkVersion
		INJECTED from /home/appideas-user8/Music/Projects/EducationPortal_mainAmit 2/EducationPortal_mainAmit/android/app/src/main/AndroidManifest.xml
		ADDED from /home/appideas-user8/Music/Projects/EducationPortal_mainAmit 2/EducationPortal_mainAmit/android/app/src/main/AndroidManifest.xml
		INJECTED from /home/appideas-user8/Music/Projects/EducationPortal_mainAmit 2/EducationPortal_mainAmit/android/app/src/main/AndroidManifest.xml
	android:minSdkVersion
		INJECTED from /home/appideas-user8/Music/Projects/EducationPortal_mainAmit 2/EducationPortal_mainAmit/android/app/src/main/AndroidManifest.xml
		ADDED from /home/appideas-user8/Music/Projects/EducationPortal_mainAmit 2/EducationPortal_mainAmit/android/app/src/main/AndroidManifest.xml
		INJECTED from /home/appideas-user8/Music/Projects/EducationPortal_mainAmit 2/EducationPortal_mainAmit/android/app/src/main/AndroidManifest.xml
uses-permission#com.android.vending.CHECK_LICENSE
ADDED from [:rn-fetch-blob] /home/appideas-user8/Music/Projects/EducationPortal_mainAmit 2/EducationPortal_mainAmit/node_modules/rn-fetch-blob/android/build/intermediates/merged_manifests/debug/processDebugManifest/merged/AndroidManifest.xml:12:5-73
	android:name
		ADDED from [:rn-fetch-blob] /home/appideas-user8/Music/Projects/EducationPortal_mainAmit 2/EducationPortal_mainAmit/node_modules/rn-fetch-blob/android/build/intermediates/merged_manifests/debug/processDebugManifest/merged/AndroidManifest.xml:12:22-70
uses-permission#android.permission.WAKE_LOCK
ADDED from [:rn-fetch-blob] /home/appideas-user8/Music/Projects/EducationPortal_mainAmit 2/EducationPortal_mainAmit/node_modules/rn-fetch-blob/android/build/intermediates/merged_manifests/debug/processDebugManifest/merged/AndroidManifest.xml:21:5-68
MERGED from [com.google.firebase:firebase-iid:17.0.4] /home/appideas-user8/.gradle/caches/transforms-1/files-1.1/firebase-iid-17.0.4.aar/df2cf79cf6bd7080f24b1f7eb3e0d659/AndroidManifest.xml:24:5-68
MERGED from [com.google.firebase:firebase-iid:17.0.4] /home/appideas-user8/.gradle/caches/transforms-1/files-1.1/firebase-iid-17.0.4.aar/df2cf79cf6bd7080f24b1f7eb3e0d659/AndroidManifest.xml:24:5-68
	android:name
		ADDED from [:rn-fetch-blob] /home/appideas-user8/Music/Projects/EducationPortal_mainAmit 2/EducationPortal_mainAmit/node_modules/rn-fetch-blob/android/build/intermediates/merged_manifests/debug/processDebugManifest/merged/AndroidManifest.xml:21:22-65
uses-permission#android.permission.ACCESS_NETWORK_STATE
ADDED from [:rn-fetch-blob] /home/appideas-user8/Music/Projects/EducationPortal_mainAmit 2/EducationPortal_mainAmit/node_modules/rn-fetch-blob/android/build/intermediates/merged_manifests/debug/processDebugManifest/merged/AndroidManifest.xml:27:5-79
MERGED from [com.google.firebase:firebase-iid:17.0.4] /home/appideas-user8/.gradle/caches/transforms-1/files-1.1/firebase-iid-17.0.4.aar/df2cf79cf6bd7080f24b1f7eb3e0d659/AndroidManifest.xml:22:5-79
MERGED from [com.google.firebase:firebase-iid:17.0.4] /home/appideas-user8/.gradle/caches/transforms-1/files-1.1/firebase-iid-17.0.4.aar/df2cf79cf6bd7080f24b1f7eb3e0d659/AndroidManifest.xml:22:5-79
	android:name
		ADDED from [:rn-fetch-blob] /home/appideas-user8/Music/Projects/EducationPortal_mainAmit 2/EducationPortal_mainAmit/node_modules/rn-fetch-blob/android/build/intermediates/merged_manifests/debug/processDebugManifest/merged/AndroidManifest.xml:27:22-76
uses-permission#android.permission.ACCESS_WIFI_STATE
ADDED from [:rn-fetch-blob] /home/appideas-user8/Music/Projects/EducationPortal_mainAmit 2/EducationPortal_mainAmit/node_modules/rn-fetch-blob/android/build/intermediates/merged_manifests/debug/processDebugManifest/merged/AndroidManifest.xml:30:5-76
	android:name
		ADDED from [:rn-fetch-blob] /home/appideas-user8/Music/Projects/EducationPortal_mainAmit 2/EducationPortal_mainAmit/node_modules/rn-fetch-blob/android/build/intermediates/merged_manifests/debug/processDebugManifest/merged/AndroidManifest.xml:30:22-73
provider#android.support.v4.content.FileProvider
ADDED from [:rn-fetch-blob] /home/appideas-user8/Music/Projects/EducationPortal_mainAmit 2/EducationPortal_mainAmit/node_modules/rn-fetch-blob/android/build/intermediates/merged_manifests/debug/processDebugManifest/merged/AndroidManifest.xml:36:9-44:20
	android:grantUriPermissions
		ADDED from [:rn-fetch-blob] /home/appideas-user8/Music/Projects/EducationPortal_mainAmit 2/EducationPortal_mainAmit/node_modules/rn-fetch-blob/android/build/intermediates/merged_manifests/debug/processDebugManifest/merged/AndroidManifest.xml:40:13-47
	android:authorities
		ADDED from [:rn-fetch-blob] /home/appideas-user8/Music/Projects/EducationPortal_mainAmit 2/EducationPortal_mainAmit/node_modules/rn-fetch-blob/android/build/intermediates/merged_manifests/debug/processDebugManifest/merged/AndroidManifest.xml:38:13-60
	android:exported
		ADDED from [:rn-fetch-blob] /home/appideas-user8/Music/Projects/EducationPortal_mainAmit 2/EducationPortal_mainAmit/node_modules/rn-fetch-blob/android/build/intermediates/merged_manifests/debug/processDebugManifest/merged/AndroidManifest.xml:39:13-37
	android:name
		ADDED from [:rn-fetch-blob] /home/appideas-user8/Music/Projects/EducationPortal_mainAmit 2/EducationPortal_mainAmit/node_modules/rn-fetch-blob/android/build/intermediates/merged_manifests/debug/processDebugManifest/merged/AndroidManifest.xml:37:13-67
meta-data#android.support.FILE_PROVIDER_PATHS
ADDED from [:rn-fetch-blob] /home/appideas-user8/Music/Projects/EducationPortal_mainAmit 2/EducationPortal_mainAmit/node_modules/rn-fetch-blob/android/build/intermediates/merged_manifests/debug/processDebugManifest/merged/AndroidManifest.xml:41:13-43:58
	android:resource
		ADDED from [:rn-fetch-blob] /home/appideas-user8/Music/Projects/EducationPortal_mainAmit 2/EducationPortal_mainAmit/node_modules/rn-fetch-blob/android/build/intermediates/merged_manifests/debug/processDebugManifest/merged/AndroidManifest.xml:43:17-55
	android:name
		ADDED from [:rn-fetch-blob] /home/appideas-user8/Music/Projects/EducationPortal_mainAmit 2/EducationPortal_mainAmit/node_modules/rn-fetch-blob/android/build/intermediates/merged_manifests/debug/processDebugManifest/merged/AndroidManifest.xml:42:17-67
provider#com.imagepicker.FileProvider
ADDED from [:react-native-image-picker] /home/appideas-user8/Music/Projects/EducationPortal_mainAmit 2/EducationPortal_mainAmit/node_modules/react-native-image-picker/android/build/intermediates/merged_manifests/debug/processDebugManifest/merged/AndroidManifest.xml:12:9-20:20
	android:grantUriPermissions
		ADDED from [:react-native-image-picker] /home/appideas-user8/Music/Projects/EducationPortal_mainAmit 2/EducationPortal_mainAmit/node_modules/react-native-image-picker/android/build/intermediates/merged_manifests/debug/processDebugManifest/merged/AndroidManifest.xml:16:13-47
	android:authorities
		ADDED from [:react-native-image-picker] /home/appideas-user8/Music/Projects/EducationPortal_mainAmit 2/EducationPortal_mainAmit/node_modules/react-native-image-picker/android/build/intermediates/merged_manifests/debug/processDebugManifest/merged/AndroidManifest.xml:14:13-60
	android:exported
		ADDED from [:react-native-image-picker] /home/appideas-user8/Music/Projects/EducationPortal_mainAmit 2/EducationPortal_mainAmit/node_modules/react-native-image-picker/android/build/intermediates/merged_manifests/debug/processDebugManifest/merged/AndroidManifest.xml:15:13-37
	android:name
		ADDED from [:react-native-image-picker] /home/appideas-user8/Music/Projects/EducationPortal_mainAmit 2/EducationPortal_mainAmit/node_modules/react-native-image-picker/android/build/intermediates/merged_manifests/debug/processDebugManifest/merged/AndroidManifest.xml:13:13-56
uses-permission#com.google.android.c2dm.permission.RECEIVE
ADDED from [com.google.android.gms:play-services-gcm:16.0.0] /home/appideas-user8/.gradle/caches/transforms-1/files-1.1/play-services-gcm-16.0.0.aar/0d67e260b03059d87dc70e7593dcfce7/AndroidManifest.xml:23:5-82
MERGED from [com.google.android.gms:play-services-iid:16.0.0] /home/appideas-user8/.gradle/caches/transforms-1/files-1.1/play-services-iid-16.0.0.aar/62572cad019c0d3f4f6fa1908f0e0f0f/AndroidManifest.xml:23:5-82
MERGED from [com.google.android.gms:play-services-iid:16.0.0] /home/appideas-user8/.gradle/caches/transforms-1/files-1.1/play-services-iid-16.0.0.aar/62572cad019c0d3f4f6fa1908f0e0f0f/AndroidManifest.xml:23:5-82
MERGED from [com.google.firebase:firebase-iid:17.0.4] /home/appideas-user8/.gradle/caches/transforms-1/files-1.1/firebase-iid-17.0.4.aar/df2cf79cf6bd7080f24b1f7eb3e0d659/AndroidManifest.xml:26:5-82
MERGED from [com.google.firebase:firebase-iid:17.0.4] /home/appideas-user8/.gradle/caches/transforms-1/files-1.1/firebase-iid-17.0.4.aar/df2cf79cf6bd7080f24b1f7eb3e0d659/AndroidManifest.xml:26:5-82
	android:name
		ADDED from [com.google.android.gms:play-services-gcm:16.0.0] /home/appideas-user8/.gradle/caches/transforms-1/files-1.1/play-services-gcm-16.0.0.aar/0d67e260b03059d87dc70e7593dcfce7/AndroidManifest.xml:23:22-79
uses-permission#com.sec.android.provider.badge.permission.READ
ADDED from [me.leolin:ShortcutBadger:1.1.8] /home/appideas-user8/.gradle/caches/transforms-1/files-1.1/ShortcutBadger-1.1.8.aar/d2918dcb14f1625628a324cdee1bca8c/AndroidManifest.xml:19:5-86
	android:name
		ADDED from [me.leolin:ShortcutBadger:1.1.8] /home/appideas-user8/.gradle/caches/transforms-1/files-1.1/ShortcutBadger-1.1.8.aar/d2918dcb14f1625628a324cdee1bca8c/AndroidManifest.xml:19:22-83
uses-permission#com.sec.android.provider.badge.permission.WRITE
ADDED from [me.leolin:ShortcutBadger:1.1.8] /home/appideas-user8/.gradle/caches/transforms-1/files-1.1/ShortcutBadger-1.1.8.aar/d2918dcb14f1625628a324cdee1bca8c/AndroidManifest.xml:20:5-87
	android:name
		ADDED from [me.leolin:ShortcutBadger:1.1.8] /home/appideas-user8/.gradle/caches/transforms-1/files-1.1/ShortcutBadger-1.1.8.aar/d2918dcb14f1625628a324cdee1bca8c/AndroidManifest.xml:20:22-84
uses-permission#com.htc.launcher.permission.READ_SETTINGS
ADDED from [me.leolin:ShortcutBadger:1.1.8] /home/appideas-user8/.gradle/caches/transforms-1/files-1.1/ShortcutBadger-1.1.8.aar/d2918dcb14f1625628a324cdee1bca8c/AndroidManifest.xml:23:5-81
	android:name
		ADDED from [me.leolin:ShortcutBadger:1.1.8] /home/appideas-user8/.gradle/caches/transforms-1/files-1.1/ShortcutBadger-1.1.8.aar/d2918dcb14f1625628a324cdee1bca8c/AndroidManifest.xml:23:22-78
uses-permission#com.htc.launcher.permission.UPDATE_SHORTCUT
ADDED from [me.leolin:ShortcutBadger:1.1.8] /home/appideas-user8/.gradle/caches/transforms-1/files-1.1/ShortcutBadger-1.1.8.aar/d2918dcb14f1625628a324cdee1bca8c/AndroidManifest.xml:24:5-83
	android:name
		ADDED from [me.leolin:ShortcutBadger:1.1.8] /home/appideas-user8/.gradle/caches/transforms-1/files-1.1/ShortcutBadger-1.1.8.aar/d2918dcb14f1625628a324cdee1bca8c/AndroidManifest.xml:24:22-80
uses-permission#com.sonyericsson.home.permission.BROADCAST_BADGE
ADDED from [me.leolin:ShortcutBadger:1.1.8] /home/appideas-user8/.gradle/caches/transforms-1/files-1.1/ShortcutBadger-1.1.8.aar/d2918dcb14f1625628a324cdee1bca8c/AndroidManifest.xml:27:5-88
	android:name
		ADDED from [me.leolin:ShortcutBadger:1.1.8] /home/appideas-user8/.gradle/caches/transforms-1/files-1.1/ShortcutBadger-1.1.8.aar/d2918dcb14f1625628a324cdee1bca8c/AndroidManifest.xml:27:22-85
uses-permission#com.sonymobile.home.permission.PROVIDER_INSERT_BADGE
ADDED from [me.leolin:ShortcutBadger:1.1.8] /home/appideas-user8/.gradle/caches/transforms-1/files-1.1/ShortcutBadger-1.1.8.aar/d2918dcb14f1625628a324cdee1bca8c/AndroidManifest.xml:28:5-92
	android:name
		ADDED from [me.leolin:ShortcutBadger:1.1.8] /home/appideas-user8/.gradle/caches/transforms-1/files-1.1/ShortcutBadger-1.1.8.aar/d2918dcb14f1625628a324cdee1bca8c/AndroidManifest.xml:28:22-89
uses-permission#com.anddoes.launcher.permission.UPDATE_COUNT
ADDED from [me.leolin:ShortcutBadger:1.1.8] /home/appideas-user8/.gradle/caches/transforms-1/files-1.1/ShortcutBadger-1.1.8.aar/d2918dcb14f1625628a324cdee1bca8c/AndroidManifest.xml:31:5-84
	android:name
		ADDED from [me.leolin:ShortcutBadger:1.1.8] /home/appideas-user8/.gradle/caches/transforms-1/files-1.1/ShortcutBadger-1.1.8.aar/d2918dcb14f1625628a324cdee1bca8c/AndroidManifest.xml:31:22-81
uses-permission#com.majeur.launcher.permission.UPDATE_BADGE
ADDED from [me.leolin:ShortcutBadger:1.1.8] /home/appideas-user8/.gradle/caches/transforms-1/files-1.1/ShortcutBadger-1.1.8.aar/d2918dcb14f1625628a324cdee1bca8c/AndroidManifest.xml:34:5-83
	android:name
		ADDED from [me.leolin:ShortcutBadger:1.1.8] /home/appideas-user8/.gradle/caches/transforms-1/files-1.1/ShortcutBadger-1.1.8.aar/d2918dcb14f1625628a324cdee1bca8c/AndroidManifest.xml:34:22-80
uses-permission#com.huawei.android.launcher.permission.CHANGE_BADGE
ADDED from [me.leolin:ShortcutBadger:1.1.8] /home/appideas-user8/.gradle/caches/transforms-1/files-1.1/ShortcutBadger-1.1.8.aar/d2918dcb14f1625628a324cdee1bca8c/AndroidManifest.xml:37:5-91
	android:name
		ADDED from [me.leolin:ShortcutBadger:1.1.8] /home/appideas-user8/.gradle/caches/transforms-1/files-1.1/ShortcutBadger-1.1.8.aar/d2918dcb14f1625628a324cdee1bca8c/AndroidManifest.xml:37:22-88
uses-permission#com.huawei.android.launcher.permission.READ_SETTINGS
ADDED from [me.leolin:ShortcutBadger:1.1.8] /home/appideas-user8/.gradle/caches/transforms-1/files-1.1/ShortcutBadger-1.1.8.aar/d2918dcb14f1625628a324cdee1bca8c/AndroidManifest.xml:38:5-92
	android:name
		ADDED from [me.leolin:ShortcutBadger:1.1.8] /home/appideas-user8/.gradle/caches/transforms-1/files-1.1/ShortcutBadger-1.1.8.aar/d2918dcb14f1625628a324cdee1bca8c/AndroidManifest.xml:38:22-89
uses-permission#com.huawei.android.launcher.permission.WRITE_SETTINGS
ADDED from [me.leolin:ShortcutBadger:1.1.8] /home/appideas-user8/.gradle/caches/transforms-1/files-1.1/ShortcutBadger-1.1.8.aar/d2918dcb14f1625628a324cdee1bca8c/AndroidManifest.xml:39:5-93
	android:name
		ADDED from [me.leolin:ShortcutBadger:1.1.8] /home/appideas-user8/.gradle/caches/transforms-1/files-1.1/ShortcutBadger-1.1.8.aar/d2918dcb14f1625628a324cdee1bca8c/AndroidManifest.xml:39:22-90
service#com.google.firebase.messaging.FirebaseMessagingService
ADDED from [com.google.firebase:firebase-messaging:17.3.4] /home/appideas-user8/.gradle/caches/transforms-1/files-1.1/firebase-messaging-17.3.4.aar/f796a0cc563a1f86db1c1f8fe84d4c82/AndroidManifest.xml:28:9-34:19
	android:exported
		ADDED from [com.google.firebase:firebase-messaging:17.3.4] /home/appideas-user8/.gradle/caches/transforms-1/files-1.1/firebase-messaging-17.3.4.aar/f796a0cc563a1f86db1c1f8fe84d4c82/AndroidManifest.xml:30:13-36
	android:name
		ADDED from [com.google.firebase:firebase-messaging:17.3.4] /home/appideas-user8/.gradle/caches/transforms-1/files-1.1/firebase-messaging-17.3.4.aar/f796a0cc563a1f86db1c1f8fe84d4c82/AndroidManifest.xml:29:13-82
intent-filter#action:name:com.google.firebase.MESSAGING_EVENT
ADDED from [com.google.firebase:firebase-messaging:17.3.4] /home/appideas-user8/.gradle/caches/transforms-1/files-1.1/firebase-messaging-17.3.4.aar/f796a0cc563a1f86db1c1f8fe84d4c82/AndroidManifest.xml:31:13-33:29
	android:priority
		ADDED from [com.google.firebase:firebase-messaging:17.3.4] /home/appideas-user8/.gradle/caches/transforms-1/files-1.1/firebase-messaging-17.3.4.aar/f796a0cc563a1f86db1c1f8fe84d4c82/AndroidManifest.xml:31:28-51
action#com.google.firebase.MESSAGING_EVENT
ADDED from [com.google.firebase:firebase-messaging:17.3.4] /home/appideas-user8/.gradle/caches/transforms-1/files-1.1/firebase-messaging-17.3.4.aar/f796a0cc563a1f86db1c1f8fe84d4c82/AndroidManifest.xml:32:17-78
	android:name
		ADDED from [com.google.firebase:firebase-messaging:17.3.4] /home/appideas-user8/.gradle/caches/transforms-1/files-1.1/firebase-messaging-17.3.4.aar/f796a0cc563a1f86db1c1f8fe84d4c82/AndroidManifest.xml:32:25-75
service#com.google.firebase.components.ComponentDiscoveryService
ADDED from [com.google.firebase:firebase-iid:17.0.4] /home/appideas-user8/.gradle/caches/transforms-1/files-1.1/firebase-iid-17.0.4.aar/df2cf79cf6bd7080f24b1f7eb3e0d659/AndroidManifest.xml:29:9-35:19
	android:exported
		ADDED from [com.google.firebase:firebase-iid:17.0.4] /home/appideas-user8/.gradle/caches/transforms-1/files-1.1/firebase-iid-17.0.4.aar/df2cf79cf6bd7080f24b1f7eb3e0d659/AndroidManifest.xml:31:13-37
	android:name
		ADDED from [com.google.firebase:firebase-iid:17.0.4] /home/appideas-user8/.gradle/caches/transforms-1/files-1.1/firebase-iid-17.0.4.aar/df2cf79cf6bd7080f24b1f7eb3e0d659/AndroidManifest.xml:30:13-84
meta-data#com.google.firebase.components:com.google.firebase.iid.Registrar
ADDED from [com.google.firebase:firebase-iid:17.0.4] /home/appideas-user8/.gradle/caches/transforms-1/files-1.1/firebase-iid-17.0.4.aar/df2cf79cf6bd7080f24b1f7eb3e0d659/AndroidManifest.xml:32:13-34:85
	android:value
		ADDED from [com.google.firebase:firebase-iid:17.0.4] /home/appideas-user8/.gradle/caches/transforms-1/files-1.1/firebase-iid-17.0.4.aar/df2cf79cf6bd7080f24b1f7eb3e0d659/AndroidManifest.xml:34:17-82
	android:name
		ADDED from [com.google.firebase:firebase-iid:17.0.4] /home/appideas-user8/.gradle/caches/transforms-1/files-1.1/firebase-iid-17.0.4.aar/df2cf79cf6bd7080f24b1f7eb3e0d659/AndroidManifest.xml:33:17-96
receiver#com.google.firebase.iid.FirebaseInstanceIdReceiver
ADDED from [com.google.firebase:firebase-iid:17.0.4] /home/appideas-user8/.gradle/caches/transforms-1/files-1.1/firebase-iid-17.0.4.aar/df2cf79cf6bd7080f24b1f7eb3e0d659/AndroidManifest.xml:37:9-44:20
	android:exported
		ADDED from [com.google.firebase:firebase-iid:17.0.4] /home/appideas-user8/.gradle/caches/transforms-1/files-1.1/firebase-iid-17.0.4.aar/df2cf79cf6bd7080f24b1f7eb3e0d659/AndroidManifest.xml:39:13-36
	android:permission
		ADDED from [com.google.firebase:firebase-iid:17.0.4] /home/appideas-user8/.gradle/caches/transforms-1/files-1.1/firebase-iid-17.0.4.aar/df2cf79cf6bd7080f24b1f7eb3e0d659/AndroidManifest.xml:40:13-73
	android:name
		ADDED from [com.google.firebase:firebase-iid:17.0.4] /home/appideas-user8/.gradle/caches/transforms-1/files-1.1/firebase-iid-17.0.4.aar/df2cf79cf6bd7080f24b1f7eb3e0d659/AndroidManifest.xml:38:13-78
intent-filter#action:name:com.google.android.c2dm.intent.RECEIVE
ADDED from [com.google.firebase:firebase-iid:17.0.4] /home/appideas-user8/.gradle/caches/transforms-1/files-1.1/firebase-iid-17.0.4.aar/df2cf79cf6bd7080f24b1f7eb3e0d659/AndroidManifest.xml:41:13-43:29
action#com.google.android.c2dm.intent.RECEIVE
ADDED from [com.google.firebase:firebase-iid:17.0.4] /home/appideas-user8/.gradle/caches/transforms-1/files-1.1/firebase-iid-17.0.4.aar/df2cf79cf6bd7080f24b1f7eb3e0d659/AndroidManifest.xml:42:17-81
	android:name
		ADDED from [com.google.firebase:firebase-iid:17.0.4] /home/appideas-user8/.gradle/caches/transforms-1/files-1.1/firebase-iid-17.0.4.aar/df2cf79cf6bd7080f24b1f7eb3e0d659/AndroidManifest.xml:42:25-78
service#com.google.firebase.iid.FirebaseInstanceIdService
ADDED from [com.google.firebase:firebase-iid:17.0.4] /home/appideas-user8/.gradle/caches/transforms-1/files-1.1/firebase-iid-17.0.4.aar/df2cf79cf6bd7080f24b1f7eb3e0d659/AndroidManifest.xml:50:9-56:19
	android:exported
		ADDED from [com.google.firebase:firebase-iid:17.0.4] /home/appideas-user8/.gradle/caches/transforms-1/files-1.1/firebase-iid-17.0.4.aar/df2cf79cf6bd7080f24b1f7eb3e0d659/AndroidManifest.xml:52:13-36
	android:name
		ADDED from [com.google.firebase:firebase-iid:17.0.4] /home/appideas-user8/.gradle/caches/transforms-1/files-1.1/firebase-iid-17.0.4.aar/df2cf79cf6bd7080f24b1f7eb3e0d659/AndroidManifest.xml:51:13-77
intent-filter#action:name:com.google.firebase.INSTANCE_ID_EVENT
ADDED from [com.google.firebase:firebase-iid:17.0.4] /home/appideas-user8/.gradle/caches/transforms-1/files-1.1/firebase-iid-17.0.4.aar/df2cf79cf6bd7080f24b1f7eb3e0d659/AndroidManifest.xml:53:13-55:29
	android:priority
		ADDED from [com.google.firebase:firebase-iid:17.0.4] /home/appideas-user8/.gradle/caches/transforms-1/files-1.1/firebase-iid-17.0.4.aar/df2cf79cf6bd7080f24b1f7eb3e0d659/AndroidManifest.xml:53:28-51
action#com.google.firebase.INSTANCE_ID_EVENT
ADDED from [com.google.firebase:firebase-iid:17.0.4] /home/appideas-user8/.gradle/caches/transforms-1/files-1.1/firebase-iid-17.0.4.aar/df2cf79cf6bd7080f24b1f7eb3e0d659/AndroidManifest.xml:54:17-80
	android:name
		ADDED from [com.google.firebase:firebase-iid:17.0.4] /home/appideas-user8/.gradle/caches/transforms-1/files-1.1/firebase-iid-17.0.4.aar/df2cf79cf6bd7080f24b1f7eb3e0d659/AndroidManifest.xml:54:25-77
activity#com.google.android.gms.common.api.GoogleApiActivity
ADDED from [com.google.android.gms:play-services-base:16.0.1] /home/appideas-user8/.gradle/caches/transforms-1/files-1.1/play-services-base-16.0.1.aar/b7877f986c99fa8c4ecdb6981101cc60/AndroidManifest.xml:23:9-26:75
	android:exported
		ADDED from [com.google.android.gms:play-services-base:16.0.1] /home/appideas-user8/.gradle/caches/transforms-1/files-1.1/play-services-base-16.0.1.aar/b7877f986c99fa8c4ecdb6981101cc60/AndroidManifest.xml:25:13-37
	android:theme
		ADDED from [com.google.android.gms:play-services-base:16.0.1] /home/appideas-user8/.gradle/caches/transforms-1/files-1.1/play-services-base-16.0.1.aar/b7877f986c99fa8c4ecdb6981101cc60/AndroidManifest.xml:26:13-72
	android:name
		ADDED from [com.google.android.gms:play-services-base:16.0.1] /home/appideas-user8/.gradle/caches/transforms-1/files-1.1/play-services-base-16.0.1.aar/b7877f986c99fa8c4ecdb6981101cc60/AndroidManifest.xml:24:13-79
provider#com.google.firebase.provider.FirebaseInitProvider
ADDED from [com.google.firebase:firebase-common:16.0.3] /home/appideas-user8/.gradle/caches/transforms-1/files-1.1/firebase-common-16.0.3.aar/90be46065eb4617a2794c29fbc97482c/AndroidManifest.xml:10:9-14:39
	android:authorities
		ADDED from [com.google.firebase:firebase-common:16.0.3] /home/appideas-user8/.gradle/caches/transforms-1/files-1.1/firebase-common-16.0.3.aar/90be46065eb4617a2794c29fbc97482c/AndroidManifest.xml:12:13-72
	android:exported
		ADDED from [com.google.firebase:firebase-common:16.0.3] /home/appideas-user8/.gradle/caches/transforms-1/files-1.1/firebase-common-16.0.3.aar/90be46065eb4617a2794c29fbc97482c/AndroidManifest.xml:13:13-37
	android:initOrder
		ADDED from [com.google.firebase:firebase-common:16.0.3] /home/appideas-user8/.gradle/caches/transforms-1/files-1.1/firebase-common-16.0.3.aar/90be46065eb4617a2794c29fbc97482c/AndroidManifest.xml:14:13-36
	android:name
		ADDED from [com.google.firebase:firebase-common:16.0.3] /home/appideas-user8/.gradle/caches/transforms-1/files-1.1/firebase-common-16.0.3.aar/90be46065eb4617a2794c29fbc97482c/AndroidManifest.xml:11:13-77
meta-data#com.google.android.gms.version
ADDED from [com.google.android.gms:play-services-basement:16.0.1] /home/appideas-user8/.gradle/caches/transforms-1/files-1.1/play-services-basement-16.0.1.aar/4e909e27b315928f32eaa8c5e35b2bde/AndroidManifest.xml:23:9-25:69
	android:value
		ADDED from [com.google.android.gms:play-services-basement:16.0.1] /home/appideas-user8/.gradle/caches/transforms-1/files-1.1/play-services-basement-16.0.1.aar/4e909e27b315928f32eaa8c5e35b2bde/AndroidManifest.xml:25:13-66
	android:name
		ADDED from [com.google.android.gms:play-services-basement:16.0.1] /home/appideas-user8/.gradle/caches/transforms-1/files-1.1/play-services-basement-16.0.1.aar/4e909e27b315928f32eaa8c5e35b2bde/AndroidManifest.xml:24:13-58
meta-data#android.support.VERSION
ADDED from [com.android.support:support-v4:26.1.0] /home/appideas-user8/.gradle/caches/transforms-1/files-1.1/support-v4-26.1.0.aar/57521508716e1dafb60accfd6f1c79e7/AndroidManifest.xml:26:9-28:38
MERGED from [com.android.support:support-media-compat:26.1.0] /home/appideas-user8/.gradle/caches/transforms-1/files-1.1/support-media-compat-26.1.0.aar/a95b062805b97cd1d3afedcaa941566a/AndroidManifest.xml:26:9-28:38
MERGED from [com.android.support:support-media-compat:26.1.0] /home/appideas-user8/.gradle/caches/transforms-1/files-1.1/support-media-compat-26.1.0.aar/a95b062805b97cd1d3afedcaa941566a/AndroidManifest.xml:26:9-28:38
	android:value
		ADDED from [com.android.support:support-v4:26.1.0] /home/appideas-user8/.gradle/caches/transforms-1/files-1.1/support-v4-26.1.0.aar/57521508716e1dafb60accfd6f1c79e7/AndroidManifest.xml:28:13-35
	android:name
		ADDED from [com.android.support:support-v4:26.1.0] /home/appideas-user8/.gradle/caches/transforms-1/files-1.1/support-v4-26.1.0.aar/57521508716e1dafb60accfd6f1c79e7/AndroidManifest.xml:27:13-51
uses-permission#android.permission.READ_PHONE_STATE
IMPLIED from /home/appideas-user8/Music/Projects/EducationPortal_mainAmit 2/EducationPortal_mainAmit/android/app/src/main/AndroidManifest.xml:1:1-38:12 reason: org.webkit.android_jsc has a targetSdkVersion < 4
